{
    "extension_description": {
        "message": "Substitui facilmente o User-Agent do seu browser",
        "description": "Extension description"
    },
    "options_entries_caption": {
        "message": "Lista de User-Agents",
        "description": "Header text of the entries editor in the extension options"
    },
    "options_entries_reset": {
        "message": "Restaurar os valores padrão",
        "description": "Options page link for loading the entries defaults"
    },
    "options_entries_reset_undo_text": {
        "message": "Valores padrão restaurados",
        "description": "Text of popup that is shown after the reset link has been clicked"
    },
    "options_entries_reset_undo_button": {
        "message": "Desfazer restauração",
        "description": "Label of button for undoing a reset (displayed below the text that asserts that the options have just been reset)"
    },
    "options_entries_switch_text": {
        "message": "Trocar para o Modo Texto",
        "description": "Options page link for switching from table to text mode"
    },
    "options_entries_switch_table": {
        "message": "Trocar para o Modo Tabela",
        "description": "Options page link for switching from text to table mode"
    },
    "options_entries_heading_label": {
        "message": "Etiqueta",
        "description": "Options page table editor heading for the column with user-facing User-Agent-String labels"
    },
    "options_entries_heading_category": {
        "message": "Categoria",
        "description": "Options page table editor heading for the column with general category of the given User-Agent-String"
    },
    "options_entries_heading_string": {
        "message": "Expressão",
        "description": "Options page table editor heading for the column with the actual server-reported User-Agent-Strings"
    },
    "useragent_category_desktop": {
        "message": "Desktop",
        "description": "Default category label for browsers on desktop devices"
    },
    "useragent_category_mobile": {
        "message": "Celular",
        "description": "Default category label for browsers on mobile devices"
    },
    "useragent_category_bot": {
        "message": "Mecanismo de Busca",
        "description": "Default category label for search engine bots"
    },
    "useragent_category_other": {
        "message": "Outros",
        "description": "Default category label for unclassified client software"
    },
    "icon_title_random": {
        "message": "Modo Aleatório",
        "description": "Text displayed in the browser action icon tooltip when the User-Agent header is choosen at random"
    },
    "icon_title_enabled": {
        "message": "Habilitado",
        "description": "Text displayed in the browser action icon tooltip when request processing is being done"
    },
    "icon_title_disabled": {
        "message": "Desabilitado",
        "description": "Text displayed in the browser action icon tooltip when no request processing is being done"
    },
    "popup_item_options": {
        "message": "Preferências…",
        "description": "The label of the menu item for opening the extension's preference page"
    },
    "popup_item_random": {
        "message": "Habilitar Modo Aleatório",
        "description": "The label of the menu item for enabling time-based User-Agent randomization"
    },
    "popup_item_random_categories": {
        "message": "Categorias:",
        "description": "The section header of the categories selection of random selection mode"
    },
    "popup_item_random_interval_mode_restart": {
        "message": "Somente na inicialização",
        "description": "The label of the menu item for enabling the time-based User-Agent randomization only on extension and browser startup"
    },
    "popup_item_random_interval_mode_timed": {
        "message": "A cada:",
        "description": "The label of the menu item for enabling the time-based User-Agent randomization at regular intervals"
    },
    "popup_item_random_interval_unit_minutes": {
        "message": "Minuto(s)",
        "description": "A User-Agent randomization time interval"
    },
    "popup_item_random_interval_unit_hours": {
        "message": "Hora(s)",
        "description": "A User-Agent randomization time interval"
    },
    "popup_item_random_interval_unit_days": {
        "message": "Dia(s)",
        "description": "A User-Agent randomization time interval"
    },
    "popup_item_default": {
        "message": "Padrão",
        "description": "The label of the menu item that disables the User-Agent-Overrider and lets the browser send its default User-Agent-String"
    },
    "option_badge_text": {
        "message": "Mostrar abreviação do User-Agent sobre o ícone?",
        "description": "Text of checkbox option to show/hide the two to four letter abbreviations displayed ontop of the browser action icon"
    },
    "option_random_jitter": {
        "message": "Variação do modo aleatório (0-100)",
        "description": "Text of numeric option (0-100) for setting by how many per-cent the random-interval value should (on avarage) be varied"
    },
    "popup_item_override": {
        "message": "Configuração por Domínio",
        "description": "Label of the checkbox that can be used to switch from setting the global User-Agent string to a per-site value"
    },
    "popup_item_override_tpl": {
        "message": "“$HOSTNAME$”",
        "description": "Label of an individual selectable override domain"
    },
    "options_entries_heading_enabled": {
        "message": "Habilitado",
        "description": "Options page table editor heading for the column allowing to enabled or disable items"
    },
    "icon_title_override_enabled": {
        "message": "Habilitado por Override",
        "description": "Text displayed in the browser action icon tooltip when request processing is being done because of an override being set"
    },
    "icon_title_override_disabled": {
        "message": "Desabilitado por Override",
        "description": "Text displayed in the browser action icon tooltip when no request processing is being done because of an override being set"
    },
    "option_popup_override_size_description": {
        "message": "Habilitado se o popup renderizado for muito menor que o seu aparelho",
        "description": "Description text of checkbox option to force the extension popup to a static/larger size than it would normally be according to the browser defaults"
    },
    "option_popup_override_size": {
        "message": "Forçar tamanho padrão do pop-up/menu",
        "description": "Text of checkbox option to force the extension popup to a static/larger size than it would normally be according to the browser defaults (note that this also has a description attached)"
    }
}
