<?xml version="1.0" encoding="UTF-8" standalone="no"?>
<!-- Created with Inkscape (http://www.inkscape.org/) -->

<svg
   xmlns:dc="http://purl.org/dc/elements/1.1/"
   xmlns:cc="http://creativecommons.org/ns#"
   xmlns:rdf="http://www.w3.org/1999/02/22-rdf-syntax-ns#"
   xmlns:svg="http://www.w3.org/2000/svg"
   xmlns="http://www.w3.org/2000/svg"
   xmlns:xlink="http://www.w3.org/1999/xlink"
   xmlns:sodipodi="http://sodipodi.sourceforge.net/DTD/sodipodi-0.dtd"
   xmlns:inkscape="http://www.inkscape.org/namespaces/inkscape"
   viewBox="0 0 96 96"
   sodipodi:docname="icon-random.svg"
   inkscape:version="0.92+devel unknown"
   style="display:inline"
   id="svg2408"
   height="96"
   width="96"
   version="1.0">
  <sodipodi:namedview
     inkscape:current-layer="svg2408"
     inkscape:window-maximized="1"
     inkscape:window-y="30"
     inkscape:window-x="0"
     inkscape:cy="5.6517016"
     inkscape:cx="49.644246"
     inkscape:zoom="2.4583333"
     showgrid="false"
     id="namedview4416"
     inkscape:window-height="981"
     inkscape:window-width="1920"
     inkscape:pageshadow="2"
     inkscape:pageopacity="0"
     guidetolerance="10"
     gridtolerance="10"
     objecttolerance="10"
     borderopacity="1"
     bordercolor="#666666"
     pagecolor="#ffffff"
     inkscape:document-rotation="0" />
  <defs
     id="defs2410">
    <linearGradient
       id="linearGradient3875">
      <stop
         id="stop3877"
         style="stop-color:#ffffff;stop-opacity:1"
         offset="0" />
      <stop
         id="stop3879"
         style="stop-color:#ffffff;stop-opacity:0.42635658"
         offset="1" />
    </linearGradient>
    <linearGradient
       x1="45.447727"
       y1="92.539597"
       x2="45.447727"
       y2="7.0165396"
       id="ButtonShadow"
       gradientUnits="userSpaceOnUse"
       gradientTransform="scale(1.0058652,0.994169)">
      <stop
         id="stop3750"
         style="stop-color:#000000;stop-opacity:1"
         offset="0" />
      <stop
         id="stop3752"
         style="stop-color:#000000;stop-opacity:0.58823532"
         offset="1" />
    </linearGradient>
    <filter
       id="filter3174"
       style="color-interpolation-filters:sRGB">
      <feGaussianBlur
         id="feGaussianBlur3176"
         stdDeviation="1.71" />
    </filter>
    <linearGradient
       id="linearGradient3737-6">
      <stop
         id="stop3739-73"
         style="stop-color:#ffffff;stop-opacity:1"
         offset="0" />
      <stop
         id="stop3741-6"
         style="stop-color:#ffffff;stop-opacity:0"
         offset="1" />
    </linearGradient>
    <clipPath
       id="clipPath3613">
      <rect
         width="84"
         height="84"
         rx="6"
         ry="6"
         x="6"
         y="6"
         id="rect3615"
         style="fill:#ffffff;fill-opacity:1;fill-rule:nonzero;stroke:none" />
    </clipPath>
    <linearGradient
       x1="48"
       y1="20.220806"
       x2="48"
       y2="138.66119"
       id="linearGradient2885"
       xlink:href="#linearGradient3737-6"
       gradientUnits="userSpaceOnUse" />
    <radialGradient
       cx="48"
       cy="41.752277"
       r="42"
       fx="48"
       fy="41.752277"
       id="radialGradient2977"
       xlink:href="#linearGradient3737-5"
       gradientUnits="userSpaceOnUse"
       gradientTransform="matrix(1.7146179,6.6254866e-8,-4.2857144e-8,1.1091053,-134.30166,-5.082394)" />
    <radialGradient
       cx="48"
       cy="90.171875"
       r="42"
       fx="48"
       fy="90.171875"
       id="radialGradient2855-1"
       xlink:href="#linearGradient3737-1-4"
       gradientUnits="userSpaceOnUse"
       gradientTransform="matrix(1.1573129,0,0,0.99590774,-7.551021,0.19713)" />
    <linearGradient
       id="linearGradient3737-1-4">
      <stop
         id="stop3739-7-1"
         style="stop-color:#ffffff;stop-opacity:1"
         offset="0" />
      <stop
         id="stop3741-2-0"
         style="stop-color:#ffffff;stop-opacity:0"
         offset="1" />
    </linearGradient>
    <linearGradient
       x1="36.357143"
       y1="6"
       x2="36.357143"
       y2="63.893143"
       id="linearGradient3188-9"
       xlink:href="#linearGradient3737-5"
       gradientUnits="userSpaceOnUse" />
    <linearGradient
       id="linearGradient3737-5">
      <stop
         id="stop3739-6"
         style="stop-color:#ffffff;stop-opacity:1"
         offset="0" />
      <stop
         id="stop3741-7"
         style="stop-color:#ffffff;stop-opacity:0"
         offset="1" />
    </linearGradient>
    <linearGradient
       id="linearGradient5226-7">
      <stop
         id="stop5228-2"
         style="stop-color:#227395;stop-opacity:1"
         offset="0" />
      <stop
         id="stop5230-4"
         style="stop-color:#44a2c9;stop-opacity:1"
         offset="1" />
    </linearGradient>
    <linearGradient
       id="linearGradient3424-7">
      <stop
         id="stop3426-4"
         style="stop-color:#ffffff;stop-opacity:1"
         offset="0" />
      <stop
         id="stop3432-0"
         style="stop-color:#ffffff;stop-opacity:1"
         offset="0.67213112" />
      <stop
         id="stop3428-2"
         style="stop-color:#ffffff;stop-opacity:0"
         offset="1" />
    </linearGradient>
    <filter
       id="filter3434"
       style="color-interpolation-filters:sRGB">
      <feGaussianBlur
         id="feGaussianBlur3436"
         stdDeviation="2.4779144" />
    </filter>
    <linearGradient
       id="linearGradient3700-1">
      <stop
         id="stop3702-4"
         style="stop-color:#2b91bc;stop-opacity:1"
         offset="0" />
      <stop
         id="stop3704-2"
         style="stop-color:#77bbd8;stop-opacity:1"
         offset="1" />
    </linearGradient>
    <filter
       x="-0.14399999"
       y="-0.14399999"
       width="1.288"
       height="1.288"
       id="filter4123"
       style="color-interpolation-filters:sRGB">
      <feGaussianBlur
         id="feGaussianBlur4125"
         stdDeviation="3.96" />
    </filter>
    <linearGradient
       x1="45.447727"
       y1="92.539597"
       x2="45.447727"
       y2="7.0165396"
       id="ButtonShadow-0"
       gradientUnits="userSpaceOnUse"
       gradientTransform="matrix(1.0058652,0,0,0.994169,100,0)">
      <stop
         id="stop3750-8"
         style="stop-color:#000000;stop-opacity:1"
         offset="0" />
      <stop
         id="stop3752-5"
         style="stop-color:#000000;stop-opacity:0.58823532"
         offset="1" />
    </linearGradient>
    <linearGradient
       x1="32.251034"
       y1="6.1317081"
       x2="32.251034"
       y2="90.238609"
       id="linearGradient3780"
       xlink:href="#ButtonShadow-0"
       gradientUnits="userSpaceOnUse"
       gradientTransform="matrix(1.0238095,0,0,1.0119048,-1.1428571,-98.071429)" />
    <linearGradient
       x1="32.251034"
       y1="6.1317081"
       x2="32.251034"
       y2="90.238609"
       id="linearGradient3772"
       xlink:href="#ButtonShadow-0"
       gradientUnits="userSpaceOnUse"
       gradientTransform="matrix(1.0238095,0,0,1.0119048,-1.1428571,-98.071429)" />
    <linearGradient
       x1="32.251034"
       y1="6.1317081"
       x2="32.251034"
       y2="90.238609"
       id="linearGradient3725"
       xlink:href="#ButtonShadow-0"
       gradientUnits="userSpaceOnUse"
       gradientTransform="matrix(1.0238095,0,0,1.0119048,-1.1428571,-98.071429)" />
    <linearGradient
       x1="32.251034"
       y1="6.1317081"
       x2="32.251034"
       y2="90.238609"
       id="linearGradient3721"
       xlink:href="#ButtonShadow-0"
       gradientUnits="userSpaceOnUse"
       gradientTransform="translate(0,-97)" />
    <linearGradient
       x1="32.251034"
       y1="6.1317081"
       x2="32.251034"
       y2="90.238609"
       id="linearGradient3071"
       xlink:href="#ButtonShadow-0"
       gradientUnits="userSpaceOnUse"
       gradientTransform="matrix(1.0238095,0,0,1.0119048,-1.1428571,-98.071429)" />
    <radialGradient
       cx="63.98003"
       cy="61.948856"
       r="58.01997"
       fx="63.98003"
       fy="61.948856"
       id="radialGradient4197"
       xlink:href="#linearGradient5226-7"
       gradientUnits="userSpaceOnUse"
       gradientTransform="matrix(1.090012,0,0,0.8408658,-21.739001,104.49175)" />
    <radialGradient
       cx="48"
       cy="46.582424"
       r="42"
       fx="48"
       fy="46.582424"
       id="radialGradient4200"
       xlink:href="#linearGradient3424-7"
       gradientUnits="userSpaceOnUse"
       gradientTransform="matrix(1,0,0,0.9665987,3.0413897e-8,111.55591)" />
    <linearGradient
       x1="48"
       y1="90"
       x2="48"
       y2="5.9877172"
       id="linearGradient4203"
       xlink:href="#linearGradient3700-1"
       gradientUnits="userSpaceOnUse"
       gradientTransform="translate(0,110)" />
    <radialGradient
       cx="63.98003"
       cy="61.948856"
       r="58.01997"
       fx="63.98003"
       fy="61.948856"
       id="radialGradient5232-9"
       xlink:href="#linearGradient3875"
       gradientUnits="userSpaceOnUse"
       gradientTransform="matrix(1.090012,0,0,0.84044811,-21.739002,-5.4878171)" />
    <linearGradient
       id="linearGradient3700-5-1">
      <stop
         id="stop3702-0-2"
         style="stop-color:#3781c6;stop-opacity:1"
         offset="0" />
      <stop
         id="stop3704-4-9"
         style="stop-color:#88b2db;stop-opacity:1"
         offset="1" />
    </linearGradient>
    <linearGradient
       x1="48"
       y1="90"
       x2="48"
       y2="5.9877172"
       id="linearGradient3345"
       xlink:href="#linearGradient3700-5-1"
       gradientUnits="userSpaceOnUse" />
    <linearGradient
       id="linearGradient3543">
      <stop
         id="stop3545"
         style="stop-color:#ffffff;stop-opacity:1"
         offset="0" />
      <stop
         id="stop3555"
         style="stop-color:#ffffff;stop-opacity:1"
         offset="0.30645162" />
      <stop
         id="stop3551"
         style="stop-color:#ffffff;stop-opacity:0.640625"
         offset="0.51899064" />
      <stop
         id="stop3547"
         style="stop-color:#ffffff;stop-opacity:0"
         offset="1" />
    </linearGradient>
    <radialGradient
       cx="74.375"
       cy="67.125"
       r="3.125"
       fx="74.375"
       fy="67.125"
       id="radialGradient3443"
       xlink:href="#linearGradient3543"
       gradientUnits="userSpaceOnUse" />
    <radialGradient
       cx="74.375"
       cy="67.125"
       r="3.125"
       fx="74.375"
       fy="67.125"
       id="radialGradient3445"
       xlink:href="#linearGradient3543"
       gradientUnits="userSpaceOnUse" />
    <radialGradient
       cx="74.375"
       cy="67.125"
       r="3.125"
       fx="74.375"
       fy="67.125"
       id="radialGradient3447"
       xlink:href="#linearGradient3543"
       gradientUnits="userSpaceOnUse" />
    <radialGradient
       cx="74.375"
       cy="67.125"
       r="3.125"
       fx="74.375"
       fy="67.125"
       id="radialGradient3449"
       xlink:href="#linearGradient3543"
       gradientUnits="userSpaceOnUse" />
    <radialGradient
       cx="74.375"
       cy="67.125"
       r="3.125"
       fx="74.375"
       fy="67.125"
       id="radialGradient3451"
       xlink:href="#linearGradient3543"
       gradientUnits="userSpaceOnUse" />
    <linearGradient
       id="linearGradient5226-0">
      <stop
         id="stop5228-7"
         style="stop-color:#ffffff;stop-opacity:1"
         offset="0" />
      <stop
         id="stop5230-6"
         style="stop-color:#ffffff;stop-opacity:0"
         offset="1" />
    </linearGradient>
    <radialGradient
       cx="74.375"
       cy="67.125"
       r="3.125"
       fx="74.375"
       fy="67.125"
       id="radialGradient3216"
       xlink:href="#linearGradient3543"
       gradientUnits="userSpaceOnUse" />
    <radialGradient
       cx="49.233551"
       cy="70.608253"
       r="25.483549"
       fx="49.233551"
       fy="70.608253"
       id="radialGradient4246"
       xlink:href="#linearGradient5226-0"
       gradientUnits="userSpaceOnUse"
       gradientTransform="matrix(0.46811249,-0.52911558,1.7948202,1.5821666,-112.03757,-37.344561)" />
    <radialGradient
       cx="63.875"
       cy="2.2173476"
       r="58.375"
       fx="63.875"
       fy="2.2173476"
       id="radialGradient4248"
       xlink:href="#linearGradient5226-0"
       gradientUnits="userSpaceOnUse"
       gradientTransform="matrix(1.0948456,0,0,0.33117465,-21.844872,32.792567)" />
    <radialGradient
       cx="69.75"
       cy="75.973572"
       r="58.5"
       fx="69.75"
       fy="75.973572"
       id="radialGradient4250"
       xlink:href="#linearGradient5226-0"
       gradientUnits="userSpaceOnUse"
       gradientTransform="matrix(2.2593878,-0.06832043,0.00797869,0.26385907,-105.95706,38.8624)" />
    <radialGradient
       cx="64.230392"
       cy="68.449158"
       r="43.769611"
       fx="64.230392"
       fy="68.449158"
       id="radialGradient4252"
       xlink:href="#linearGradient5226-0"
       gradientUnits="userSpaceOnUse"
       gradientTransform="matrix(1.4544425,0,0,0.92610887,-45.079796,-12.6013)" />
    <radialGradient
       cx="74.375"
       cy="67.125"
       r="3.125"
       fx="74.375"
       fy="67.125"
       id="radialGradient3354"
       xlink:href="#linearGradient3543"
       gradientUnits="userSpaceOnUse" />
    <linearGradient
       x1="11.998966"
       y1="0.92195445"
       x2="11.998966"
       y2="19.387045"
       id="linearGradient4121-9"
       gradientUnits="userSpaceOnUse"
       gradientTransform="scale(0.9219544,1.0846523)">
      <stop
         id="stop4123-7"
         style="stop-color:#313233;stop-opacity:1"
         offset="0" />
      <stop
         id="stop4125-7"
         style="stop-color:#23486a;stop-opacity:1"
         offset="1" />
    </linearGradient>
    <linearGradient
       x1="56"
       y1="16"
       x2="56"
       y2="80"
       id="linearGradient3175"
       xlink:href="#linearGradient4121-9"
       gradientUnits="userSpaceOnUse"
       gradientTransform="matrix(0.88281209,0,0,0.89965146,5.62502,13.562884)" />
    <radialGradient
       inkscape:collect="always"
       xlink:href="#linearGradient3875"
       id="radialGradient4419"
       gradientUnits="userSpaceOnUse"
       gradientTransform="matrix(1.090012,0,0,0.84044811,-21.739002,-5.4878171)"
       cx="63.98003"
       cy="61.948856"
       fx="63.98003"
       fy="61.948856"
       r="58.01997" />
    <radialGradient
       inkscape:collect="always"
       xlink:href="#linearGradient3737-1-4"
       id="radialGradient4422"
       gradientUnits="userSpaceOnUse"
       gradientTransform="matrix(1.1573129,0,0,0.99590774,-7.551021,0.19713)"
       cx="48"
       cy="90.171875"
       fx="48"
       fy="90.171875"
       r="42" />
    <linearGradient
       inkscape:collect="always"
       xlink:href="#linearGradient3737-5"
       id="linearGradient4425"
       gradientUnits="userSpaceOnUse"
       x1="36.357143"
       y1="6"
       x2="36.357143"
       y2="63.893143" />
    <radialGradient
       inkscape:collect="always"
       xlink:href="#linearGradient5226-7"
       id="radialGradient4428"
       gradientUnits="userSpaceOnUse"
       gradientTransform="matrix(1.090012,0,0,0.8408658,-21.739001,104.49175)"
       cx="63.98003"
       cy="61.948856"
       fx="63.98003"
       fy="61.948856"
       r="58.01997" />
    <linearGradient
       inkscape:collect="always"
       xlink:href="#linearGradient3700-1"
       id="linearGradient4432"
       gradientUnits="userSpaceOnUse"
       gradientTransform="translate(0,110)"
       x1="48"
       y1="90"
       x2="48"
       y2="5.9877172" />
    <radialGradient
       inkscape:collect="always"
       xlink:href="#linearGradient3737-5"
       id="radialGradient4435"
       gradientUnits="userSpaceOnUse"
       gradientTransform="matrix(1.7146179,6.6254866e-8,-4.2857144e-8,1.1091053,-134.30166,-5.082394)"
       cx="48"
       cy="41.752277"
       fx="48"
       fy="41.752277"
       r="42" />
    <linearGradient
       inkscape:collect="always"
       xlink:href="#linearGradient3700-5-1"
       id="linearGradient4438"
       gradientUnits="userSpaceOnUse"
       x1="48"
       y1="90"
       x2="48"
       y2="5.9877172" />
    <clipPath
       id="clipPath4097">
      <path
         d="m 12,76 c -3.324,0 -6,2.676 -6,6 v 72 c 0,3.324 2.676,6 6,6 h 72 c 3.324,0 6,-2.676 6,-6 V 82 c 0,-3.324 -2.676,-6 -6,-6 z m 36,18 c 6.161551,0 11.156265,4.722076 11.15625,10.53125 -0.02459,0.73006 -0.09742,1.52079 -0.15625,2.375 0.841854,0.6383 0.950993,2.53409 0.125,4.5 -0.298129,0.70957 -0.689887,1.31386 -1.09375,1.8125 -0.13063,0.61672 -0.206804,1.09428 -0.375,1.8125 -0.457646,1.38687 -2.25736,4.11893 -3.625,6.25 -0.08814,1.41731 -0.04816,2.84228 0.125,4.28125 1.630607,1.43231 4.247302,2.62582 6.875,3.71875 1.665078,-0.6585 3.295977,-1.37077 4.34375,-2.25 0.20095,-1.18501 0.22488,-2.20822 0.125,-3.25 -1.001552,-1.35046 -2.16226,-2.91484 -2.4375,-3.75 -0.08885,-0.41131 -0.14529,-0.69786 -0.21875,-1.0625 -0.01032,-0.0115 -0.02099,-0.0195 -0.03125,-0.0313 -0.307775,-0.35021 -0.620439,-0.78033 -0.84375,-1.3125 -0.57912,-1.3801 -0.492997,-2.77493 0.15625,-3.125 -0.04563,-0.55204 -0.0526,-1.02493 -0.0625,-1.46875 0,-3.8727 3.335039,-7.0312 7.4375,-7.0312 4.10246,0 7.437517,3.1585 7.4375,7.03125 -0.01637,0.48671 -0.08583,1.02428 -0.125,1.59375 0.560519,0.42553 0.643709,1.68939 0.09375,3 -0.1985,0.47305 -0.449851,0.85508 -0.71875,1.1875 -0.08698,0.41115 -0.138013,0.73994 -0.25,1.21875 -0.304709,0.92458 -1.526904,2.73554 -2.4375,4.15625 -0.05869,0.94487 -0.02154,1.88444 0.09375,2.84375 2.84746,2.50437 10.26949,3.8566 10.28125,6 L 84,134 H 69.4375 c 0.07629,0.18396 0.1239,0.37077 0.125,0.5625 L 69.78125,136 h -43.5625 l 0.21875,-1.4375 c -8.5e-4,-0.19234 0.0388,-0.38079 0.09375,-0.5625 H 12 l 0.125,-0.96875 c -0.01105,-2.50437 7.367193,-3.5809 10.25,-6 0.20095,-1.18501 0.22488,-2.20822 0.125,-3.25 -1.001552,-1.35046 -2.16226,-2.91484 -2.4375,-3.75 -0.08885,-0.41131 -0.14529,-0.69786 -0.21875,-1.0625 -0.01032,-0.0115 -0.02099,-0.0195 -0.03125,-0.0313 -0.307775,-0.35021 -0.620439,-0.78033 -0.84375,-1.3125 -0.57912,-1.3801 -0.492997,-2.77493 0.15625,-3.125 -0.04563,-0.55204 -0.0526,-1.02493 -0.0625,-1.46875 0,-3.8727 3.335039,-7.0312 7.4375,-7.0312 4.10246,0 7.437517,3.1585 7.4375,7.03125 -0.01637,0.48671 -0.08583,1.02428 -0.125,1.59375 0.560519,0.42553 0.643709,1.68939 0.09375,3 -0.1985,0.47305 -0.449851,0.85508 -0.71875,1.1875 -0.08698,0.41115 -0.138013,0.73994 -0.25,1.21875 -0.304709,0.92458 -1.526904,2.73554 -2.4375,4.15625 -0.05869,0.94487 -0.02154,1.88444 0.09375,2.84375 0.943649,0.82995 2.395521,1.53906 3.90625,2.1875 2.75881,-1.07769 5.575089,-2.20017 7.3125,-3.65625 0.301816,-1.77751 0.30626,-3.34357 0.15625,-4.90625 -1.504247,-2.02569 -3.211613,-4.37225 -3.625,-5.625 -0.13344,-0.61696 -0.202159,-1.04679 -0.3125,-1.59375 -0.01552,-0.0171 -0.04709,-0.0449 -0.0625,-0.0625 -0.462251,-0.52531 -0.945855,-1.17049 -1.28125,-1.96875 -0.869788,-2.07016 -0.725114,-4.0999 0.25,-4.625 -0.06853,-0.82806 -0.07877,-1.58427 -0.09375,-2.25 C 36.84375,98.722124 41.838449,94 48,94 Z"
         inkscape:connector-curvature="0"
         id="path4099"
         style="fill:url(#linearGradient4101);fill-opacity:1;fill-rule:nonzero;stroke:none" />
    </clipPath>
    <filter
       x="-0.19"
       y="-0.32571429"
       width="1.38"
       height="1.6514286"
       id="filter4103"
       style="color-interpolation-filters:sRGB">
      <feGaussianBlur
         id="feGaussianBlur4105"
         stdDeviation="5.7" />
    </filter>
    <linearGradient
       x1="56"
       y1="16"
       x2="56"
       y2="80"
       id="linearGradient4004"
       xlink:href="#linearGradient3853-5"
       gradientUnits="userSpaceOnUse"
       gradientTransform="matrix(0.58779071,0,0,0.59976762,41.286046,28.375257)" />
    <linearGradient
       id="linearGradient3853-5">
      <stop
         id="stop3855-0"
         style="stop-color:#000000;stop-opacity:1"
         offset="0" />
      <stop
         id="stop3857-4"
         style="stop-color:#313131;stop-opacity:1"
         offset="1" />
    </linearGradient>
    <linearGradient
       x1="56"
       y1="16"
       x2="56"
       y2="80"
       id="linearGradient3111"
       xlink:href="#linearGradient3853-5"
       gradientUnits="userSpaceOnUse"
       gradientTransform="matrix(0.88281208,0,0,0.89965143,5.6250204,11.562884)" />
    <linearGradient
       id="linearGradient3338">
      <stop
         id="stop3340"
         style="stop-color:#000000;stop-opacity:1"
         offset="0" />
      <stop
         id="stop3342"
         style="stop-color:#313131;stop-opacity:1"
         offset="1" />
    </linearGradient>
    <linearGradient
       x1="56"
       y1="16"
       x2="56"
       y2="80"
       id="linearGradient3996"
       xlink:href="#linearGradient3853-5"
       gradientUnits="userSpaceOnUse"
       gradientTransform="matrix(0.58779071,0,0,0.59976762,-1.7139535,28.375257)" />
    <linearGradient
       id="linearGradient3345-7">
      <stop
         id="stop3347"
         style="stop-color:#000000;stop-opacity:1"
         offset="0" />
      <stop
         id="stop3349"
         style="stop-color:#313131;stop-opacity:1"
         offset="1" />
    </linearGradient>
    <linearGradient
       inkscape:collect="always"
       xlink:href="#ButtonShadow-0"
       id="linearGradient4651"
       gradientUnits="userSpaceOnUse"
       gradientTransform="matrix(1.0238095,0,0,1.0119048,-1.1428571,-98.071429)"
       x1="32.251034"
       y1="6.1317081"
       x2="32.251034"
       y2="90.238609" />
    <linearGradient
       inkscape:collect="always"
       xlink:href="#ButtonShadow-0"
       id="linearGradient4653"
       gradientUnits="userSpaceOnUse"
       gradientTransform="matrix(1.0238095,0,0,1.0119048,-1.1428571,-98.071429)"
       x1="32.251034"
       y1="6.1317081"
       x2="32.251034"
       y2="90.238609" />
    <linearGradient
       inkscape:collect="always"
       xlink:href="#ButtonShadow-0"
       id="linearGradient4655"
       gradientUnits="userSpaceOnUse"
       gradientTransform="matrix(1.0238095,0,0,1.0119048,-1.1428571,-98.071429)"
       x1="32.251034"
       y1="6.1317081"
       x2="32.251034"
       y2="90.238609" />
    <linearGradient
       inkscape:collect="always"
       xlink:href="#ButtonShadow-0"
       id="linearGradient4657"
       gradientUnits="userSpaceOnUse"
       gradientTransform="matrix(1.0238095,0,0,1.0119048,-1.1428571,-98.071429)"
       x1="32.251034"
       y1="6.1317081"
       x2="32.251034"
       y2="90.238609" />
    <linearGradient
       inkscape:collect="always"
       xlink:href="#ButtonShadow-0"
       id="linearGradient4659"
       gradientUnits="userSpaceOnUse"
       gradientTransform="translate(0,-97)"
       x1="32.251034"
       y1="6.1317081"
       x2="32.251034"
       y2="90.238609" />
    <linearGradient
       inkscape:collect="always"
       xlink:href="#linearGradient3737-5"
       id="linearGradient4663"
       gradientUnits="userSpaceOnUse"
       x1="36.357143"
       y1="6"
       x2="36.357143"
       y2="63.893143" />
    <radialGradient
       inkscape:collect="always"
       xlink:href="#linearGradient3737-1-4"
       id="radialGradient4665"
       gradientUnits="userSpaceOnUse"
       gradientTransform="matrix(1.1573129,0,0,0.99590774,-7.551021,0.19713)"
       cx="48"
       cy="90.171875"
       fx="48"
       fy="90.171875"
       r="42" />
    <radialGradient
       inkscape:collect="always"
       xlink:href="#linearGradient3875"
       id="radialGradient4667"
       gradientUnits="userSpaceOnUse"
       gradientTransform="matrix(1.090012,0,0,0.84044811,-21.739002,-5.4878171)"
       cx="63.98003"
       cy="61.948856"
       fx="63.98003"
       fy="61.948856"
       r="58.01997" />
    <linearGradient
       inkscape:collect="always"
       xlink:href="#linearGradient3737-6"
       id="linearGradient4669"
       gradientUnits="userSpaceOnUse"
       x1="48"
       y1="20.220806"
       x2="48"
       y2="138.66119" />
    <radialGradient
       inkscape:collect="always"
       xlink:href="#linearGradient5226-0"
       id="radialGradient4671"
       gradientUnits="userSpaceOnUse"
       gradientTransform="matrix(0.46811249,-0.52911558,1.7948202,1.5821666,-112.03757,-37.344561)"
       cx="49.233551"
       cy="70.608253"
       fx="49.233551"
       fy="70.608253"
       r="25.483549" />
    <radialGradient
       inkscape:collect="always"
       xlink:href="#linearGradient5226-0"
       id="radialGradient4673"
       gradientUnits="userSpaceOnUse"
       gradientTransform="matrix(1.4544425,0,0,0.92610887,-45.079796,-12.6013)"
       cx="64.230392"
       cy="68.449158"
       fx="64.230392"
       fy="68.449158"
       r="43.769611" />
    <radialGradient
       inkscape:collect="always"
       xlink:href="#linearGradient3543"
       id="radialGradient4675"
       gradientUnits="userSpaceOnUse"
       cx="74.375"
       cy="67.125"
       fx="74.375"
       fy="67.125"
       r="3.125" />
    <radialGradient
       inkscape:collect="always"
       xlink:href="#linearGradient3543"
       id="radialGradient4677"
       gradientUnits="userSpaceOnUse"
       cx="74.375"
       cy="67.125"
       fx="74.375"
       fy="67.125"
       r="3.125" />
    <radialGradient
       inkscape:collect="always"
       xlink:href="#linearGradient3543"
       id="radialGradient4679"
       gradientUnits="userSpaceOnUse"
       cx="74.375"
       cy="67.125"
       fx="74.375"
       fy="67.125"
       r="3.125" />
    <radialGradient
       inkscape:collect="always"
       xlink:href="#linearGradient3543"
       id="radialGradient4681"
       gradientUnits="userSpaceOnUse"
       cx="74.375"
       cy="67.125"
       fx="74.375"
       fy="67.125"
       r="3.125" />
    <radialGradient
       inkscape:collect="always"
       xlink:href="#linearGradient3543"
       id="radialGradient4683"
       gradientUnits="userSpaceOnUse"
       cx="74.375"
       cy="67.125"
       fx="74.375"
       fy="67.125"
       r="3.125" />
    <radialGradient
       inkscape:collect="always"
       xlink:href="#linearGradient3543"
       id="radialGradient4685"
       gradientUnits="userSpaceOnUse"
       cx="74.375"
       cy="67.125"
       fx="74.375"
       fy="67.125"
       r="3.125" />
    <radialGradient
       inkscape:collect="always"
       xlink:href="#linearGradient5226-0"
       id="radialGradient4687"
       gradientUnits="userSpaceOnUse"
       gradientTransform="matrix(1.0948456,0,0,0.33117465,-21.844872,32.792567)"
       cx="63.875"
       cy="2.2173476"
       fx="63.875"
       fy="2.2173476"
       r="58.375" />
    <radialGradient
       inkscape:collect="always"
       xlink:href="#linearGradient5226-0"
       id="radialGradient4689"
       gradientUnits="userSpaceOnUse"
       gradientTransform="matrix(2.2593878,-0.06832043,0.00797869,0.26385907,-105.95706,38.8624)"
       cx="69.75"
       cy="75.973572"
       fx="69.75"
       fy="75.973572"
       r="58.5" />
    <radialGradient
       inkscape:collect="always"
       xlink:href="#linearGradient3543"
       id="radialGradient4691"
       gradientUnits="userSpaceOnUse"
       cx="74.375"
       cy="67.125"
       fx="74.375"
       fy="67.125"
       r="3.125" />
    <linearGradient
       inkscape:collect="always"
       xlink:href="#linearGradient3853-5"
       id="linearGradient4693"
       gradientUnits="userSpaceOnUse"
       gradientTransform="matrix(0.58779071,0,0,0.59976762,41.286046,28.375257)"
       x1="56"
       y1="16"
       x2="56"
       y2="80" />
    <linearGradient
       inkscape:collect="always"
       xlink:href="#linearGradient3853-5"
       id="linearGradient4695"
       gradientUnits="userSpaceOnUse"
       gradientTransform="matrix(0.88281208,0,0,0.89965143,5.6250204,11.562884)"
       x1="56"
       y1="16"
       x2="56"
       y2="80" />
    <linearGradient
       inkscape:collect="always"
       xlink:href="#linearGradient3853-5"
       id="linearGradient4697"
       gradientUnits="userSpaceOnUse"
       gradientTransform="matrix(0.58779071,0,0,0.59976762,-1.7139535,28.375257)"
       x1="56"
       y1="16"
       x2="56"
       y2="80" />
    <filter
       style="color-interpolation-filters:sRGB;"
       inkscape:label="Lightness-Contrast"
       id="filter5287">
      <feColorMatrix
         values="70.000000000000043"
         id="feColorMatrix5285"
         type="hueRotate" />
    </filter>
  </defs>
  <metadata
     id="metadata2413">
    <rdf:RDF>
      <cc:Work
         rdf:about="">
        <dc:format>image/svg+xml</dc:format>
        <dc:type
           rdf:resource="http://purl.org/dc/dcmitype/StillImage" />
        <dc:title />
      </cc:Work>
    </rdf:RDF>
  </metadata>
  <g
     id="layer2"
     style="display:none">
    <rect
       width="86"
       height="85"
       rx="6"
       ry="6"
       x="5"
       y="7"
       id="rect3745"
       style="opacity:0.9;fill:url(#ButtonShadow);fill-opacity:1;fill-rule:nonzero;stroke:none;filter:url(#filter3174)" />
  </g>
  <path
     style="display:inline;fill:url(#radialGradient4200);fill-opacity:1;stroke:none;filter:url(#filter3434)"
     id="path4119"
     inkscape:connector-curvature="0"
     d="m 36.273888,116.0817 c 1.650116,2.21669 0.112581,5.91834 2.601472,5.88159 1.2119,1.71402 -2.415455,0.5113 0.203594,1.83235 1.506105,1.18657 -1.593388,1.86454 0.27179,2.92937 -2.149689,1.10967 0.348443,5.80399 1.945119,6.97885 2.627954,2.21316 1.162204,-4.68572 4.094495,-5.0446 1.593359,-1.8197 4.391847,-2.98781 6.379273,-4.81838 -1.942301,-0.15774 -3.076464,-1.36714 -1.237028,-2.1163 3.385456,3.47039 0.848905,-1.64353 -1.025128,-2.45324 1.813361,-0.57705 3.576977,-0.15449 3.325361,-1.65137 1.916325,-1.40252 -1.842255,-1.85535 -3.183935,-1.53827 -4.458342,0 -8.916678,0 -13.375013,0 z m -27.8018524,1.44778 c -2.4497603,0.69819 -2.6206434,6.55488 -0.1583506,3.30274 0.6043433,-1.33537 3.397078,-2.94467 0.1583506,-3.30274 z m 11.4464914,0.20359 c -1.412257,2.21534 0.204915,3.9915 1.379912,1.28943 0.831709,-1.12834 -0.617926,-1.24809 -1.379912,-1.28943 z m 3.528956,0.49768 c -2.72875,1.26521 -0.672602,4.21556 -0.605059,4.87173 2.87456,0.99483 4.473227,-0.65043 5.560693,2.16149 2.73516,1.57694 -0.05382,4.31706 -1.080544,5.03068 1.849342,-1.61119 5.404158,4.38048 4.472249,1.21492 -1.11178,-0.81208 2.985161,1.30456 0.859619,-1.33467 -1.956059,-3.15266 0.155272,-1.41141 0.979953,-0.67561 2.804888,-2.51609 -3.173595,-2.82021 -1.681217,-5.40958 -1.307758,-1.05958 -3.02289,-4.26949 -5.33868,-3.64206 -1.550241,2.00557 -0.214153,-4.36996 -2.488605,-1.17956 -0.117891,1.78341 -0.04285,4.04645 -0.705711,0.95682 -0.444071,-0.54087 0.764001,-1.7983 0.0273,-1.99416 z m -5.564894,0.0226 c -1.8316,0.61085 -1.733228,3.0865 0.518957,3.35191 0.771435,-0.87964 0.306491,-3.18534 -0.518957,-3.35191 z m -7.148401,0.79175 c -2.3790789,0.56388 -1.4079923,2.48286 -0.679573,3.02332 -2.9449177,0.73792 4.495691,0.94313 0.792681,1.41049 -3.0807906,1.23084 2.966663,2.68095 3.958766,1.22156 3.804391,0.93074 0.136908,-3.04654 -0.19704,-5.20253 -1.612752,-1.73148 -0.06366,3.99154 -1.521869,0.18441 -0.508786,1.13054 -2.126527,0.1666 -2.352965,-0.63725 z m 75.601127,0.24884 c -3.192449,1.24986 1.98418,5.96643 0.697641,1.67549 -0.128164,-0.51813 0.288199,-1.88711 -0.697641,-1.67549 z m -66.665626,1.9002 c -2.29408,2.15671 2.915989,3.9402 -0.658895,5.54691 -0.536018,-2.00294 -1.458273,1.0021 -3.503464,-0.61542 -3.515899,1.46447 -5.313868,-0.76283 -8.2575357,-2.28957 -1.7680291,-0.22016 -1.1037806,1.68053 -1.220883,3.46019 0,4.91831 0,9.83662 0,14.75492 1.7334888,1.82448 0.6763288,0.80498 0,0.30175 0.9514666,3.24165 -0.4195722,7.98024 3.3308509,9.86584 0.6375636,1.18303 3.3128828,6.22307 3.4362208,4.71504 -1.341215,-1.40506 -2.717353,-5.61739 -0.447896,-1.86302 2.032755,3.56879 4.774749,5.8835 8.780477,6.73276 2.190057,0.74522 3.991169,3.30696 5.917116,2.74332 1.089051,2.87197 -3.227416,5.62989 0.144912,8.3086 1.760515,2.7118 4.716185,4.4904 3.11596,8.29758 -1.119073,3.71826 -0.639926,7.76974 -1.607786,11.23409 -0.300394,2.10873 2.938037,7.46101 2.65747,3.17511 0.945569,-2.9784 0.92064,-6.25562 3.147579,-8.36483 3.047115,0.0241 0.582377,-3.27775 3.60701,-2.84642 1.845644,-2.42007 2.380233,-5.30712 5.49491,-6.26809 0.372042,-2.9376 5.178821,-7.43659 0.213139,-8.58032 -1.349609,-0.66545 -4.824504,-0.90473 -4.55895,-1.23308 0.538034,-2.91487 -4.493466,-3.7447 -6.634228,-4.93727 -2.810759,-1.99584 -7.034237,3.3156 -8.024515,-1.26102 -0.590876,-1.43995 -2.751326,-1.4633 -1.758429,-3.68521 -1.789388,1.78033 -5.289343,1.23924 -4.373033,-2.19892 1.39157,-2.89559 6.735639,-3.0326 7.64626,0.45029 -1.264352,-3.84121 2.443938,-6.83144 4.502527,-9.56422 0.419165,-1.3062 2.909742,-2.42843 2.052679,-0.69242 1.460154,-0.0527 3.673291,-2.68864 1.079407,-1.47202 -0.03668,-2.40389 -2.272976,-1.72027 -2.997994,-1.37893 1.34377,-2.13357 8.24499,-0.96713 5.355098,-4.45459 -2.239305,-0.90768 -2.053024,-6.20445 -4.317999,-3.25359 0.190595,-1.81815 -4.610012,-5.37715 -4.505255,-2.32832 0.585986,2.72813 0.107133,5.87087 -1.139926,7.65911 -0.260245,-3.99762 -7.075678,-3.11408 -6.199423,-7.37399 1.26944,-2.03029 2.752851,-4.83791 2.894179,-4.58534 2.275048,-0.86894 4.104591,-3.39651 1.46783,-5.05812 -0.140917,1.4482 -1.98303,4.43614 -1.72366,0.82232 -1.705794,2.02318 -1.316199,-3.21941 -2.913753,-3.76312 z m 54.450004,1.40253 c -3.995941,0.97784 -5.580067,4.79584 -7.556815,7.95817 -2.913853,1.31423 -2.802938,6.95832 0.452411,5.15567 0.87128,1.52228 -0.609505,3.92167 1.928313,1.93122 2.046994,-2.7099 0.357939,-7.09276 3.841419,-8.80152 0.253727,1.32865 -3.213334,6.28987 0.836994,5.47441 3.66156,0.13821 -2.661851,0.36497 -0.881001,2.70473 -1.850264,-1.09821 -0.888827,2.99933 -3.303976,2.04578 -2.092333,1.13854 -3.464338,-0.52862 -2.985033,-2.35496 -1.645958,0.96058 0.517696,3.67045 -2.339585,3.83331 -0.640044,2.27366 -5.903378,1.93097 -2.910208,4.24616 1.328901,3.44536 -4.95153,0.21599 -3.16853,4.35053 1.525447,4.08844 4.722394,-1.35472 6.019433,-2.40634 2.502474,-1.94188 6.210661,3.31108 3.958763,3.50633 2.525083,-0.33891 2.006191,-2.74125 -0.01696,-3.6713 -1.092676,-2.83493 3.459035,1.39032 3.206601,2.81168 1.605944,3.00835 0.944615,-3.08009 2.578854,-0.38456 -0.190808,2.84338 6.574181,0.66855 3.344389,4.29241 -2.776877,0.55952 -5.510134,-0.71614 -7.900831,0.10093 -2.22511,-0.0197 -2.113469,-2.39797 -2.923585,-2.99354 -2.830365,0.23004 -6.327933,0.20402 -8.222767,2.4914 -2.049016,2.81234 -5.00383,6.7438 -2.770526,10.33481 2.234877,5.32146 7.777183,0.27603 10.962975,3.41876 0.946936,1.31039 -0.820594,2.86804 1.296711,4.28743 0.796704,3.02353 -0.904488,5.89433 1.052264,8.78464 1.011837,2.7182 1.639779,6.78664 5.40576,4.30281 3.985771,-2.39945 2.924161,-6.8227 6.212939,-9.27265 -2.60227,-5.03806 3.183628,-7.2471 4.627218,-11.3371 -3.153943,0.46191 -5.963772,-2.68376 -6.725787,-5.84994 -1.324936,-1.53789 -0.983676,-3.8055 0.496326,-0.91647 2.034259,1.97191 2.078217,7.82306 5.841274,4.81302 1.720349,-0.71984 6.418604,-3.46572 2.675109,-4.71532 -2.413043,1.7484 -5.075252,-5.22426 -1.531819,-1.17997 C 88.196064,156.6505 90,157.3019 90,153.67705 c 0,-9.76613 0,-19.66458 0,-29.49687 -0.802399,0.82028 -2.863802,2.33524 -3.904284,1.32857 -1.790368,0.24941 -4.153886,3.73428 -3.59125,0.36554 -1.556235,-0.10309 -0.278581,3.02053 -2.416637,3.10789 -0.215289,1.60589 -2.159868,0.29738 -1.429431,1.82237 -1.500645,-1.06488 -2.770669,-4.42704 0.186146,-2.31673 4.391021,-1.31784 -2.895608,-4.29041 -3.458045,-5.00891 0.945455,-0.22661 -1.028609,-1.21224 -1.266806,-0.88224 z m -36.239676,0.88224 c -1.461507,1.2182 2.778528,1.44762 0,0 z m -19.522376,0.65603 c -1.634652,1.7105 2.603281,1.57244 0,0 z m 9.478418,1.69661 c -1.237867,2.02858 1.829027,0.74894 0,0 z m 27.100586,2.39788 c -1.449235,1.66908 -3.362051,-0.43926 -3.39323,0.99535 0.262642,0.43347 1.314671,3.52729 3.619439,1.24418 1.236985,-0.52171 0.749963,-1.83688 -0.226209,-2.23953 z m -30.855759,0.99535 c -2.748806,2.40147 4.668304,2.62274 0.582324,0.27542 z m 36.262298,6.65072 c -1.979083,1.29104 0.949434,4.03281 -0.04308,5.32072 -1.240104,2.16147 4.608325,-0.15225 1.484614,-1.87676 -0.222564,-1.48161 -1.830018,-3.28935 -1.441539,-3.44396 z m -1.334668,2.60147 c -2.757392,0.77986 -0.625964,4.80624 0.350657,1.014 0.05497,-0.21986 0.12936,-1.02135 -0.350657,-1.014 z m -22.078603,2.91818 c -2.565224,1.74983 -0.39843,3.49644 1.481561,2.70912 -0.385959,-1.05576 -1.46417,-1.72096 -1.481561,-2.70912 z m 48.455298,2.9408 c 1.279946,0.64619 -2.345536,1.75008 -0.04983,2.88736 1.335978,1.57167 0.832312,4.94545 -1.339202,2.55764 0.403442,-2.66599 -2.943559,-4.65698 1.389032,-5.445 z m -6.582867,0.0226 c -0.173666,1.71279 3.69395,4.37514 -0.475048,3.50633 -2.204744,0.25873 -5.506966,-0.0674 -2.729423,-2.81568 0.87765,-0.52709 3.182055,1.8185 1.982912,-0.37395 0.42514,-0.0271 0.821079,-0.18767 1.221559,-0.3167 z m -12.735913,3.70992 c -1.608116,1.03642 1.111982,1.83112 0,0 z m -40.379417,9.65939 c -0.271103,0.90481 5.085991,1.82176 1.389301,0.37215 l -0.551068,-0.19405 z m 4.16236,1.28943 c -1.624915,1.65021 3.347807,0.49301 0,0 z m 54.336901,15.13379 c -3.530727,0.0911 -3.061331,9.20159 -0.600138,3.81083 0.233406,-1.16979 1.168903,-2.71377 0.600138,-3.81083 z" />
  <g
     id="g4615"
     transform="matrix(0.9,0,0,0.9,4.8,3.45)"
     style="filter:url(#filter5287);opacity:0.96">
    <g
       style="display:inline"
       id="layer5">
      <path
         style="display:inline;opacity:0.07999998;fill:url(#linearGradient4651);fill-opacity:1;fill-rule:nonzero;stroke:none"
         id="path3786"
         transform="scale(1,-1)"
         d="m 12,-95.03125 c -5.5110903,0 -10.03125,4.52016 -10.03125,10.03125 v 71 c 0,5.5110902 4.5201598,10.03125 10.03125,10.03125 h 72 c 5.51109,0 10.03125,-4.5201597 10.03125,-10.03125 v -71 c 0,-5.51109 -4.52016,-10.03125 -10.03125,-10.03125 z"
         inkscape:connector-curvature="0" />
      <path
         style="display:inline;opacity:0.1;fill:url(#linearGradient4653);fill-opacity:1;fill-rule:nonzero;stroke:none"
         id="path3778"
         transform="scale(1,-1)"
         d="m 12,-94.03125 c -4.971633,0 -9.03125,4.059617 -9.03125,9.03125 v 71 c 0,4.9716329 4.0596171,9.03125 9.03125,9.03125 h 72 c 4.971633,0 9.03125,-4.059617 9.03125,-9.03125 v -71 c 0,-4.971633 -4.059617,-9.03125 -9.03125,-9.03125 z"
         inkscape:connector-curvature="0" />
      <path
         style="display:inline;opacity:0.2;fill:url(#linearGradient4655);fill-opacity:1;fill-rule:nonzero;stroke:none"
         id="path3770"
         transform="scale(1,-1)"
         d="m 12,-93 c -4.4091333,0 -8,3.590867 -8,8 v 71 c 0,4.4091333 3.5908667,8 8,8 h 72 c 4.409133,0 8,-3.5908667 8,-8 v -71 c 0,-4.409133 -3.590867,-8 -8,-8 z"
         inkscape:connector-curvature="0" />
      <rect
         style="display:inline;opacity:0.3;fill:url(#linearGradient4657);fill-opacity:1;fill-rule:nonzero;stroke:none"
         id="rect3723"
         transform="scale(1,-1)"
         y="-92"
         x="5"
         ry="7"
         rx="7"
         height="85"
         width="86" />
      <rect
         style="display:inline;opacity:0.45;fill:url(#linearGradient4659);fill-opacity:1;fill-rule:nonzero;stroke:none"
         id="rect3716"
         transform="scale(1,-1)"
         y="-91"
         x="6"
         ry="6"
         rx="6"
         height="84"
         width="84" />
    </g>
    <rect
       width="84"
       height="84"
       rx="6"
       ry="6"
       x="6"
       y="6"
       id="rect2419-8"
       style="display:inline;fill:#d45500;fill-opacity:1;fill-rule:nonzero;stroke:none" />
    <path
       d="m 12,6.0000002 c -3.324,0 -6,2.676 -6,5.9999998 v 2 68 2 c 0,0.334721 0.04135,0.6507 0.09375,0.96875 0.0487,0.295596 0.09704,0.596915 0.1875,0.875 0.00988,0.03038 0.020892,0.0636 0.03125,0.09375 0.098865,0.287771 0.2348802,0.547452 0.375,0.8125 0.1445918,0.273507 0.3156161,0.535615 0.5,0.78125 0.1843839,0.245635 0.3737765,0.473472 0.59375,0.6875 0.439947,0.428056 0.94291,0.814526 1.5,1.09375 0.278545,0.139612 0.5734731,0.246947 0.875,0.34375 -0.2562018,-0.100222 -0.4867109,-0.236272 -0.71875,-0.375 -0.00741,-0.0044 -0.023866,0.0045 -0.03125,0 -0.031933,-0.0193 -0.062293,-0.04251 -0.09375,-0.0625 -0.120395,-0.0767 -0.2310226,-0.163513 -0.34375,-0.25 -0.1061728,-0.0808 -0.2132809,-0.161112 -0.3125,-0.25 C 8.4783201,88.557317 8.3087904,88.373362 8.15625,88.1875 8.0486711,88.057245 7.9378561,87.922215 7.84375,87.78125 7.818661,87.74287 7.805304,87.69538 7.78125,87.65625 7.716487,87.553218 7.6510225,87.451733 7.59375,87.34375 7.4927417,87.149044 7.3880752,86.928049 7.3125,86.71875 7.30454,86.69694 7.288911,86.6782 7.28125,86.65625 7.249425,86.5643 7.245445,86.469419 7.21875,86.375 7.188418,86.268382 7.148361,86.171969 7.125,86.0625 7.052121,85.720988 7,85.364295 7,85 V 83 15 13 C 7,10.218152 9.2181517,8.0000002 12,8.0000002 h 2 68 2 c 2.781848,0 5,2.2181518 5,4.9999998 v 2 68 2 c 0,0.364295 -0.05212,0.720988 -0.125,1.0625 -0.04415,0.206893 -0.08838,0.397658 -0.15625,0.59375 -0.0077,0.02195 -0.0233,0.04069 -0.03125,0.0625 -0.06274,0.173739 -0.138383,0.367449 -0.21875,0.53125 -0.04158,0.0828 -0.07904,0.169954 -0.125,0.25 -0.0546,0.09721 -0.126774,0.18835 -0.1875,0.28125 -0.09411,0.140965 -0.204921,0.275995 -0.3125,0.40625 -0.143174,0.17445 -0.303141,0.346998 -0.46875,0.5 -0.01117,0.0102 -0.01998,0.02115 -0.03125,0.03125 -0.138386,0.125556 -0.285091,0.234436 -0.4375,0.34375 -0.102571,0.07315 -0.204318,0.153364 -0.3125,0.21875 -0.0074,0.0045 -0.02384,-0.0044 -0.03125,0 -0.232039,0.138728 -0.462548,0.274778 -0.71875,0.375 0.301527,-0.0968 0.596455,-0.204138 0.875,-0.34375 0.55709,-0.279224 1.060053,-0.665694 1.5,-1.09375 0.219973,-0.214028 0.409366,-0.441865 0.59375,-0.6875 0.184384,-0.245635 0.355408,-0.507743 0.5,-0.78125 0.14012,-0.265048 0.276135,-0.524729 0.375,-0.8125 0.01041,-0.03078 0.02133,-0.06274 0.03125,-0.09375 0.09046,-0.278085 0.1388,-0.579404 0.1875,-0.875 C 89.95865,84.6507 90,84.334721 90,84 V 82 14 12 C 90,8.6760002 87.324,6.0000002 84,6.0000002 Z"
       inkscape:connector-curvature="0"
       id="rect3728"
       style="opacity:0.35;fill:url(#linearGradient4663);fill-opacity:1;fill-rule:nonzero;stroke:none" />
    <path
       d="M 12,90 C 8.676,90 6,87.324 6,84 V 82 14 12 c 0,-0.33472 0.04135,-0.6507 0.09375,-0.96875 0.0487,-0.2956 0.09704,-0.59691 0.1875,-0.875 0.00988,-0.0304 0.020892,-0.0636 0.03125,-0.0937 C 6.411365,9.77478 6.5473802,9.5151 6.6875,9.25005 6.8320918,8.97654 7.0031161,8.71443 7.1875,8.4688 7.3718839,8.22317 7.5612765,7.99533 7.78125,7.7813 8.221197,7.35324 8.72416,6.96677 9.28125,6.68755 9.559795,6.54794 9.8547231,6.4406 10.15625,6.3438 9.9000482,6.44402 9.6695391,6.58007 9.4375,6.7188 9.43009,6.7228 9.413634,6.7148 9.40625,6.7188 9.374317,6.7381 9.343957,6.7613 9.3125,6.7813 9.192105,6.858 9.0814774,6.94481 8.96875,7.0313 8.8625772,7.1121 8.7554691,7.19241 8.65625,7.2813 8.4783201,7.44273 8.3087904,7.62669 8.15625,7.81255 8.0486711,7.94281 7.9378561,8.07784 7.84375,8.2188 7.818661,8.2572 7.805304,8.3047 7.78125,8.3438 7.716487,8.44683 7.6510225,8.54832 7.59375,8.6563 7.4927417,8.85101 7.3880752,9.072 7.3125,9.2813 7.30454,9.3031 7.288911,9.3218 7.28125,9.3438 7.249425,9.4357 7.245445,9.53063 7.21875,9.62505 7.188418,9.73167 7.148361,9.82808 7.125,9.93755 7.052121,10.27901 7,10.63571 7,11 v 2 68 2 c 0,2.78185 2.2181517,5 5,5 h 2 68 2 c 2.781848,0 5,-2.21815 5,-5 V 81 13 11 C 89,10.63571 88.94788,10.27901 88.875,9.9375 88.83085,9.73061 88.78662,9.53984 88.71875,9.34375 88.71105,9.32175 88.69545,9.30305 88.6875,9.28125 88.62476,9.10751 88.549117,8.9138 88.46875,8.75 88.42717,8.6672 88.38971,8.58005 88.34375,8.5 88.28915,8.4028 88.216976,8.31165 88.15625,8.21875 88.06214,8.07779 87.951329,7.94276 87.84375,7.8125 87.700576,7.63805 87.540609,7.4655 87.375,7.3125 87.36383,7.3023 87.35502,7.2913 87.34375,7.2813 87.205364,7.15574 87.058659,7.04686 86.90625,6.93755 86.803679,6.86445 86.701932,6.78419 86.59375,6.7188 c -0.0074,-0.004 -0.02384,0.004 -0.03125,0 -0.232039,-0.13873 -0.462548,-0.27478 -0.71875,-0.375 0.301527,0.0968 0.596455,0.20414 0.875,0.34375 0.55709,0.27922 1.060053,0.66569 1.5,1.09375 0.219973,0.21403 0.409366,0.44187 0.59375,0.6875 0.184384,0.24563 0.355408,0.50774 0.5,0.78125 0.14012,0.26505 0.276135,0.52473 0.375,0.8125 0.01041,0.0308 0.02133,0.0627 0.03125,0.0937 0.09046,0.27809 0.1388,0.5794 0.1875,0.875 C 89.95865,11.3493 90,11.66528 90,12 v 2 68 2 c 0,3.324 -2.676,6 -6,6 z"
       inkscape:connector-curvature="0"
       id="path3615"
       style="opacity:0.25;fill:url(#radialGradient4665);fill-opacity:1;fill-rule:nonzero;stroke:none" />
    <path
       d="m 36.27388,6.096377 c 1.65012,2.2155912 0.11259,5.915398 2.60148,5.878671 1.2119,1.713164 -2.41545,0.511042 0.2036,1.831432 1.5061,1.185988 -1.5934,1.863613 0.27178,2.927919 -2.14968,1.109114 0.34844,5.801103 1.94512,6.97538 2.62795,2.212061 1.1622,-4.683394 4.0945,-5.04209 1.59336,-1.818795 4.39184,-2.986327 6.37927,-4.815989 -1.9423,-0.15766 -3.07647,-1.366454 -1.23702,-2.115252 3.38545,3.468671 0.8489,-1.642711 -1.02514,-2.452023 1.81336,-0.5767594 3.57698,-0.154404 3.32537,-1.6505493 1.91632,-1.4018192 -1.84226,-1.8544226 -3.18394,-1.5374987 -4.45834,0 -8.91667,0 -13.37502,0 z M 8.472035,7.5434349 C 6.022275,8.2412831 5.851393,14.095058 8.313685,10.844535 8.918028,9.50983 11.710762,7.901324 8.472035,7.5434349 Z M 19.918529,7.746927 c -1.41226,2.214241 0.204911,3.989518 1.379911,1.288786 0.83171,-1.1277826 -0.617931,-1.2474651 -1.379911,-1.288786 z m 3.528951,0.4974263 c -2.728751,1.2645837 -0.6726,4.2134717 -0.60506,4.8693197 2.87457,0.994334 4.47323,-0.650114 5.56069,2.160413 2.73516,1.576152 -0.0538,4.314918 -1.08054,5.028176 1.84934,-1.610389 5.40416,4.378304 4.47226,1.214321 -1.11179,-0.811673 2.98515,1.303915 0.85962,-1.334006 -1.95607,-3.151091 0.15527,-1.410713 0.97995,-0.675273 2.80488,-2.514847 -3.1736,-2.818813 -1.68123,-5.40689 C 30.64542,13.041357 28.93028,9.83304 26.6145,10.46016 25.06426,12.464727 26.40035,6.0923691 24.12589,9.281181 c -0.11789,1.782531 -0.0429,4.044447 -0.70571,0.956351 -0.44407,-0.540606 0.764,-1.7974072 0.0273,-1.9931787 z m -5.56489,0.022612 C 16.050988,8.8775146 16.149361,11.351938 18.401546,11.617212 19.17298,10.738016 18.70804,8.4334551 17.88259,8.2669653 Z M 10.734187,9.058325 c -2.379078,0.563598 -1.407992,2.481632 -0.679572,3.02182 -2.944918,0.737557 4.49569,0.942657 0.79268,1.409793 -3.08079,1.230224 2.966663,2.67961 3.958767,1.220954 3.804388,0.930273 0.136908,-3.045031 -0.197041,-5.199948 -1.612752,-1.7306215 -0.06365,3.989551 -1.521868,0.184316 -0.508787,1.129983 -2.126528,0.166515 -2.352966,-0.636935 z M 86.33531,9.307037 c -3.19244,1.249243 1.98418,5.963472 0.69765,1.674664 -0.12817,-0.517868 0.28819,-1.886169 -0.69765,-1.674664 z M 19.66969,11.2063 c -2.294083,2.155636 2.91599,3.938244 -0.658894,5.54415 -0.53602,-2.001942 -1.458276,1.001608 -3.503467,-0.615111 -3.515899,1.46374 -5.313868,-0.762449 -8.257534,-2.288432 -1.768029,-0.220055 -1.103781,1.679698 -1.220884,3.458474 0,4.915862 0,9.831727 0,14.74759 1.733489,1.823574 0.676329,0.804576 0,0.301602 0.951467,3.240031 -0.419572,7.976266 3.330851,9.860928 0.637563,1.182446 3.312882,6.219986 3.43622,4.712704 -1.341214,-1.404368 -2.717353,-5.614596 -0.447896,-1.862098 2.032756,3.567022 4.774753,5.880584 8.780474,6.729415 2.19006,0.744855 3.99117,3.305322 5.91712,2.741963 1.08905,2.870539 -3.22741,5.627088 0.14491,8.30447 1.76052,2.71045 4.71618,4.488168 3.11596,8.29345 -1.11907,3.716413 -0.63993,7.765882 -1.60779,11.228513 -0.30039,2.107681 2.93804,7.457302 2.65747,3.173531 0.94557,-2.976918 0.92064,-6.252508 3.14759,-8.360679 3.04711,0.02412 0.58237,-3.276114 3.607,-2.844995 1.84565,-2.418872 2.38023,-5.304486 5.49491,-6.264978 0.37205,-2.936144 5.17882,-7.4329 0.21314,-8.576056 -1.34961,-0.665119 -4.8245,-0.904282 -4.55894,-1.232465 0.53803,-2.913429 -4.49347,-3.742841 -6.63424,-4.934817 -2.81075,-1.994856 -7.03423,3.313948 -8.02451,-1.260398 -0.59088,-1.439233 -2.75133,-1.462574 -1.75843,-3.683379 -1.78939,1.779441 -5.28934,1.238624 -4.373028,-2.197824 1.391566,-2.894156 6.735638,-3.031092 7.646258,0.450058 -1.26435,-3.839294 2.44394,-6.828036 4.50253,-9.559465 0.41916,-1.305551 2.90974,-2.427219 2.05268,-0.692077 1.46015,-0.05266 3.67328,-2.687302 1.07941,-1.471281 -0.0367,-2.402702 -2.27298,-1.719417 -2.998,-1.378249 1.34377,-2.132514 8.24498,-0.966646 5.35509,-4.452373 -2.2393,-0.907229 -2.05302,-6.201368 -4.318,-3.251981 0.1906,-1.817243 -4.61001,-5.374474 -4.50525,-2.327163 0.58599,2.726773 0.10714,5.867952 -1.13992,7.655308 -0.26025,-3.995633 -7.075686,-3.112538 -6.199431,-7.370332 1.269451,-2.029282 2.752851,-4.835506 2.894181,-4.583059 2.27505,-0.868509 4.10459,-3.394824 1.46783,-5.055609 -0.14092,1.447483 -1.98303,4.433935 -1.72366,0.821917 -1.705794,2.022175 -1.3162,-3.217808 -2.91375,-3.761252 z m 54.45,1.401837 c -3.99594,0.977352 -5.58007,4.793453 -7.55681,7.954209 -2.91386,1.313584 -2.80294,6.954861 0.45241,5.153113 0.87128,1.52152 -0.60951,3.919724 1.92831,1.930256 2.047,-2.708555 0.35794,-7.089232 3.84142,-8.797142 0.25374,1.32799 -3.21334,6.286746 0.83699,5.471685 3.66156,0.13814 -2.66185,0.364788 -0.88099,2.703385 -1.85027,-1.097665 -0.88884,2.997843 -3.30399,2.044772 -2.09232,1.137967 -3.46433,-0.528366 -2.98503,-2.353789 -1.64596,0.960095 0.5177,3.668626 -2.33958,3.831405 -0.64005,2.272529 -5.90338,1.930002 -2.9102,4.244049 1.3289,3.443647 -4.95154,0.215879 -3.16854,4.348369 1.52545,4.086407 4.7224,-1.354049 6.01943,-2.405153 2.50248,-1.940907 6.21066,3.309444 3.95877,3.504593 2.52508,-0.338743 2.00619,-2.739888 -0.0169,-3.669477 -1.09268,-2.833524 3.45903,1.389634 3.2066,2.810286 1.60595,3.006852 0.94462,-3.078557 2.57885,-0.384373 -0.1908,2.841965 6.57418,0.668223 3.34439,4.290282 -2.77688,0.559235 -5.51013,-0.715787 -7.90083,0.100876 -2.22511,-0.01969 -2.11347,-2.396773 -2.92358,-2.992055 -2.83037,0.229926 -6.32794,0.203926 -8.22277,2.490166 -2.04902,2.810946 -5.00383,6.740445 -2.77053,10.329674 2.23487,5.318818 7.77718,0.27589 10.96298,3.417068 0.94693,1.309731 -0.8206,2.86661 1.2967,4.285291 0.79672,3.022035 -0.90448,5.891404 1.05227,8.780282 1.01184,2.716843 1.63978,6.783262 5.40576,4.300665 3.98577,-2.398255 2.92416,-6.819304 6.21294,-9.268036 -2.60227,-5.035562 3.18363,-7.243505 4.62722,-11.33147 -3.15395,0.461678 -5.96377,-2.682428 -6.72579,-5.847035 -1.32494,-1.53712 -0.98368,-3.80361 0.49633,-0.916013 2.03426,1.970926 2.07821,7.819175 5.84127,4.810628 1.72035,-0.719477 6.4186,-3.464001 2.67511,-4.712977 -2.41304,1.747528 -5.07525,-5.221667 -1.53182,-1.179385 2.57602,1.092759 4.37996,1.743838 4.37996,-1.879216 0,-9.761273 0,-19.654809 0,-29.482214 -0.8024,0.819872 -2.8638,2.334082 -3.90428,1.32791 -1.79037,0.249281 -4.15389,3.732429 -3.59125,0.365356 -1.55624,-0.103042 -0.27858,3.019034 -2.41664,3.106347 -0.21529,1.605089 -2.15987,0.29723 -1.42943,1.821464 -1.50065,-1.064346 -2.77067,-4.424842 0.18614,-2.315577 4.39103,-1.31719 -2.8956,-4.288275 -3.45804,-5.006418 0.94545,-0.226501 -1.02861,-1.211646 -1.26681,-0.881801 z m -36.23968,0.881801 c -1.4615,1.217596 2.77854,1.446893 0,0 z m -19.522371,0.655697 c -1.634647,1.709655 2.603281,1.571667 0,0 z m 9.478421,1.69577 c -1.23786,2.027571 1.82903,0.748571 0,0 z m 27.10058,2.39669 c -1.44923,1.668248 -3.36205,-0.439045 -3.39323,0.994852 0.26265,0.433258 1.31467,3.52554 3.61945,1.243565 1.23698,-0.521451 0.74995,-1.835967 -0.22622,-2.238417 z m -30.85575,0.994852 c -2.74881,2.400285 4.6683,2.621438 0.58232,0.275289 z m 36.2623,6.647418 c -1.97909,1.2904 0.94943,4.030804 -0.0431,5.318079 -1.2401,2.160392 4.60832,-0.152179 1.48461,-1.875826 -0.22257,-1.48088 -1.83002,-3.287723 -1.44154,-3.442253 z m -1.33468,2.600181 c -2.75739,0.779471 -0.62595,4.803849 0.35067,1.013493 0.0549,-0.219748 0.12936,-1.020842 -0.35067,-1.013493 z m -22.0786,2.916726 c -2.56522,1.748962 -0.39843,3.494707 1.48156,2.707775 -0.38596,-1.055239 -1.46417,-1.720102 -1.48156,-2.707775 z m 48.4553,2.939335 c 1.27995,0.645878 -2.34554,1.749213 -0.0498,2.885924 1.33598,1.570889 0.83231,4.942999 -1.3392,2.556372 0.40344,-2.664667 -2.94356,-4.654664 1.38903,-5.442296 z m -6.58287,0.02261 c -0.17366,1.711943 3.69395,4.372967 -0.47504,3.504593 -2.20475,0.258597 -5.50697,-0.06736 -2.72943,-2.814283 0.87765,-0.526822 3.18206,1.817596 1.98292,-0.373765 0.42513,-0.02712 0.82107,-0.18758 1.22155,-0.316545 z M 66.06643,38.0673 c -1.60811,1.035898 1.11199,1.830212 0,0 z m -40.37941,9.654585 c -0.27111,0.904354 5.08598,1.82085 1.38929,0.371963 l -0.55107,-0.193949 z m 4.16235,1.288785 c -1.62491,1.649392 3.34782,0.492772 0,0 z m 54.3369,15.126272 c -3.53072,0.09109 -3.06133,9.197024 -0.60013,3.808943 0.2334,-1.169216 1.1689,-2.712425 0.60013,-3.808943 z"
       inkscape:connector-curvature="0"
       id="path3522-9"
       style="display:inline;opacity:0.7;fill:url(#radialGradient4667);fill-opacity:1;stroke:none" />
    <g
       style="display:inline"
       id="layer4">
      <rect
         style="opacity:0.15;fill:url(#linearGradient4669);fill-opacity:1;fill-rule:nonzero;stroke:#ffffff;stroke-width:0.5;stroke-linecap:round;stroke-linejoin:miter;stroke-miterlimit:4;stroke-dasharray:none;stroke-dashoffset:0;stroke-opacity:1;filter:url(#filter4123)"
         id="rect3171"
         clip-path="url(#clipPath3613)"
         y="15"
         x="15"
         ry="12"
         rx="12"
         height="66"
         width="66" />
    </g>
    <g
       style="display:inline"
       id="layer3">
      <g
         id="g4234"
         style="">
        <path
           style="display:inline;fill:none;stroke:url(#radialGradient4671);stroke-width:2;stroke-linecap:butt;stroke-linejoin:miter;stroke-miterlimit:4;stroke-dasharray:none;stroke-opacity:1"
           id="path3583"
           inkscape:connector-curvature="0"
           d="M 7,29.523112 C 58.250036,38.347576 38.633643,89 38.633643,89" />
        <path
           style="display:inline;fill:none;stroke:url(#radialGradient4673);stroke-width:2;stroke-linecap:butt;stroke-linejoin:miter;stroke-miterlimit:4;stroke-dasharray:none;stroke-opacity:1"
           id="path3581"
           inkscape:connector-curvature="0"
           d="M 27.676739,88.823511 C 26.616393,73.292454 56.129343,28.640665 88.823332,20.875137" />
        <path
           style="display:inline;fill:url(#radialGradient4675);fill-opacity:1;fill-rule:evenodd;stroke:none"
           id="path3537"
           transform="matrix(1.3572422,0,0,1.3554377,-73.268157,-53.871603)"
           d="m 77.5,67.125 a 3.125,3.125 0 1 1 -6.25,0 3.125,3.125 0 1 1 6.25,0 z"
           inkscape:connector-curvature="0" />
        <path
           style="display:inline;fill:url(#radialGradient4677);fill-opacity:1;fill-rule:evenodd;stroke:none"
           id="path3557"
           transform="matrix(1.0744835,0,0,1.0730548,-39.513825,-14.090919)"
           d="m 77.5,67.125 a 3.125,3.125 0 1 1 -6.25,0 3.125,3.125 0 1 1 6.25,0 z"
           inkscape:connector-curvature="0" />
        <path
           style="display:inline;fill:url(#radialGradient4679);fill-opacity:1;fill-rule:evenodd;stroke:none"
           id="path3561"
           transform="matrix(1.5834493,0,0,1.581344,-53.333661,-72.388859)"
           d="m 77.5,67.125 a 3.125,3.125 0 1 1 -6.25,0 3.125,3.125 0 1 1 6.25,0 z"
           inkscape:connector-curvature="0" />
        <path
           style="display:inline;opacity:0.6;fill:url(#radialGradient4681);fill-opacity:1;fill-rule:evenodd;stroke:none"
           id="path3565"
           transform="matrix(1.0219348,0,0,1.020576,-15.635673,-16.92189)"
           d="m 77.5,67.125 a 3.125,3.125 0 1 1 -6.25,0 3.125,3.125 0 1 1 6.25,0 z"
           inkscape:connector-curvature="0" />
        <path
           style="display:inline;opacity:0.7;fill:url(#radialGradient4683);fill-opacity:1;fill-rule:evenodd;stroke:none"
           id="path3569"
           transform="matrix(0.89260147,0,0,0.89141463,-51.611367,-28.371713)"
           d="m 77.5,67.125 a 3.125,3.125 0 1 1 -6.25,0 3.125,3.125 0 1 1 6.25,0 z"
           inkscape:connector-curvature="0" />
        <path
           style="display:inline;opacity:0.6;fill:url(#radialGradient4685);fill-opacity:1;fill-rule:evenodd;stroke:none"
           id="path3573"
           transform="matrix(0.56551763,0,0,0.5647657,38.456917,3.261507)"
           d="m 77.5,67.125 a 3.125,3.125 0 1 1 -6.25,0 3.125,3.125 0 1 1 6.25,0 z"
           inkscape:connector-curvature="0" />
        <path
           style="display:inline;fill:none;stroke:url(#radialGradient4687);stroke-width:2;stroke-linecap:butt;stroke-linejoin:miter;stroke-miterlimit:4;stroke-dasharray:none;stroke-opacity:1"
           id="path3577"
           inkscape:connector-curvature="0"
           d="M 7.1767242,47.701508 C 35.275882,28.287687 72.387975,27.228751 89.000056,49.289911" />
        <path
           style="display:inline;opacity:0.6;fill:none;stroke:url(#radialGradient4689);stroke-width:1.5;stroke-linecap:butt;stroke-linejoin:miter;stroke-miterlimit:4;stroke-dasharray:none;stroke-opacity:1"
           id="path3585"
           inkscape:connector-curvature="0"
           d="M 7.1767242,67.821286 C 58.42676,56.349483 89.17678,37.641619 89.17678,37.641619" />
        <path
           style="display:inline;opacity:0.6;fill:url(#radialGradient4691);fill-opacity:1;fill-rule:evenodd;stroke:none"
           id="path3352"
           transform="matrix(0.84547158,0,0,0.84434747,15.553432,-31.917967)"
           d="m 77.5,67.125 a 3.125,3.125 0 1 1 -6.25,0 3.125,3.125 0 1 1 6.25,0 z"
           inkscape:connector-curvature="0" />
      </g>
    </g>
    <g
       id="layer3-1"
       transform="translate(0,1)"
       style="">
      <path
         style="display:inline;opacity:0.5;fill:#ffffff;fill-opacity:1;stroke:none;filter:url(#filter4103);enable-background:new"
         id="path4049"
         clip-path="url(#clipPath4097)"
         transform="translate(0,-68)"
         inkscape:connector-curvature="0"
         d="m 48,94 c -6.161551,0 -11.15625,4.722124 -11.15625,10.53125 0.01498,0.66573 0.02522,1.42194 0.09375,2.25 -0.975114,0.5251 -1.119788,2.55484 -0.25,4.625 0.335395,0.79826 0.818999,1.44344 1.28125,1.96875 0.01541,0.0176 0.04698,0.0454 0.0625,0.0625 0.110341,0.54696 0.17906,0.97679 0.3125,1.59375 0.413387,1.25275 2.120753,3.59931 3.625,5.625 0.15001,1.56268 0.145566,3.12874 -0.15625,4.90625 -1.737411,1.45608 -4.55369,2.57856 -7.3125,3.65625 -1.510729,-0.64844 -2.962601,-1.35755 -3.90625,-2.1875 -0.115291,-0.95931 -0.152436,-1.89888 -0.09375,-2.84375 0.910596,-1.42071 2.132791,-3.23167 2.4375,-4.15625 0.111987,-0.47881 0.163024,-0.8076 0.25,-1.21875 0.268899,-0.33242 0.52025,-0.71445 0.71875,-1.1875 0.549959,-1.31061 0.466769,-2.57447 -0.09375,-3 0.03917,-0.56947 0.10863,-1.10704 0.125,-1.59375 C 33.937517,109.1585 30.60246,106 26.5,106 c -4.102461,0 -7.4375,3.1585 -7.4375,7.03125 0.0099,0.44382 0.01687,0.91671 0.0625,1.46875 -0.649247,0.35007 -0.73537,1.7449 -0.15625,3.125 0.223311,0.53217 0.535975,0.96229 0.84375,1.3125 0.01026,0.0117 0.02093,0.0198 0.03125,0.0313 0.07346,0.36464 0.129903,0.65119 0.21875,1.0625 0.27524,0.83516 1.435948,2.39954 2.4375,3.75 0.09988,1.04178 0.07595,2.06499 -0.125,3.25 -2.882807,2.4191 -10.261052,3.49563 -10.25,6 L 12,134 h 14.53125 c -0.05495,0.18171 -0.0946,0.37016 -0.09375,0.5625 L 26.21875,136 h 43.5625 L 69.5625,134.5625 C 69.5614,134.37077 69.51379,134.18396 69.4375,134 H 84 l -0.125,-0.96875 c -0.01176,-2.1434 -7.43379,-3.49563 -10.28125,-6 -0.115291,-0.95931 -0.152436,-1.89888 -0.09375,-2.84375 0.910596,-1.42071 2.132791,-3.23167 2.4375,-4.15625 0.111987,-0.47881 0.163024,-0.8076 0.25,-1.21875 0.268899,-0.33242 0.52025,-0.71445 0.71875,-1.1875 0.549959,-1.31061 0.466769,-2.57447 -0.09375,-3 0.03917,-0.56947 0.10863,-1.10704 0.125,-1.59375 C 76.937517,109.1585 73.60246,106 69.5,106 c -4.102461,0 -7.4375,3.1585 -7.4375,7.03125 0.0099,0.44382 0.01687,0.91671 0.0625,1.46875 -0.649247,0.35007 -0.73537,1.7449 -0.15625,3.125 0.223311,0.53217 0.535975,0.96229 0.84375,1.3125 0.01026,0.0117 0.02093,0.0198 0.03125,0.0313 0.07346,0.36464 0.129903,0.65119 0.21875,1.0625 0.27524,0.83516 1.435948,2.39954 2.4375,3.75 0.09988,1.04178 0.07595,2.06499 -0.125,3.25 -1.047773,0.87923 -2.678672,1.5915 -4.34375,2.25 -2.627698,-1.09293 -5.244393,-2.28644 -6.875,-3.71875 -0.173156,-1.43897 -0.213143,-2.86394 -0.125,-4.28125 1.36764,-2.13107 3.167354,-4.86313 3.625,-6.25 0.168196,-0.71822 0.24437,-1.19578 0.375,-1.8125 0.403863,-0.49864 0.795621,-1.10293 1.09375,-1.8125 0.825993,-1.96591 0.716854,-3.8617 -0.125,-4.5 0.05883,-0.85421 0.131655,-1.64494 0.15625,-2.375 C 59.156265,98.722126 54.161551,94 48,94 Z" />
      <path
         style="display:inline;opacity:0.6;fill:url(#linearGradient4693);fill-opacity:1;stroke:none;enable-background:new"
         id="path4002"
         inkscape:connector-curvature="0"
         d="m 69.500001,38 c -4.102461,0 -7.425405,3.147137 -7.425405,7.019887 0.0099,0.443823 0.01284,0.939434 0.05847,1.491477 -0.649247,0.350066 -0.735034,1.722168 -0.155914,3.102273 0.223311,0.532174 0.530263,0.962292 0.838038,1.3125 0.01026,0.0117 0.02865,0.02836 0.03897,0.03977 0.07346,0.364638 0.125533,0.642668 0.21438,1.053977 0.27524,0.835163 1.415116,2.408062 2.416668,3.758523 0.09988,1.041783 0.103507,2.076355 -0.09744,3.261362 -2.882807,2.419095 -10.262394,3.501314 -10.251342,6.005682 L 55,66 h 29 l -0.136424,-0.954545 c -0.01176,-2.143405 -7.423373,-3.501309 -10.270833,-6.005683 -0.115291,-0.959312 -0.136646,-1.898878 -0.07796,-2.843749 0.910596,-1.420715 2.111958,-3.25156 2.416667,-4.176137 0.111987,-0.478814 0.166383,-0.801919 0.253359,-1.213068 0.268899,-0.332425 0.522603,-0.720136 0.721103,-1.193181 0.549959,-1.310609 0.482559,-2.577308 -0.07796,-3.002841 0.03917,-0.569473 0.08107,-1.1042 0.09744,-1.590909 C 76.925409,41.147138 73.602461,38 69.500001,38 Z" />
      <path
         style="display:inline;fill:url(#linearGradient4695);fill-opacity:1;stroke:none;enable-background:new"
         id="path3798-8"
         inkscape:connector-curvature="0"
         d="m 48,26 c -6.161551,0 -11.152331,4.720705 -11.152331,10.529831 0.01498,0.665734 0.01929,1.409151 0.08782,2.237215 -0.975114,0.525098 -1.103958,2.583252 -0.23417,4.65341 0.335395,0.798261 0.796411,1.443438 1.258662,1.96875 0.01541,0.01756 0.04302,0.04255 0.05854,0.05965 0.110341,0.546958 0.188542,0.964002 0.321982,1.580965 0.413387,1.252746 2.125383,3.612094 3.62963,5.637785 0.15001,1.562675 0.15546,3.114532 -0.146356,4.892044 -4.329732,3.628641 -15.413251,5.251969 -15.396653,9.008522 L 26.222222,68 H 69.777777 L 69.572879,66.568182 C 69.555214,63.353075 58.4236,61.31622 54.146954,57.559658 c -0.173156,-1.438968 -0.20523,-2.848316 -0.117087,-4.265623 1.36764,-2.131074 3.171983,-4.87734 3.629629,-6.264206 0.168196,-0.718221 0.249895,-1.202878 0.380525,-1.819601 0.403863,-0.498639 0.784906,-1.080206 1.083035,-1.789772 0.825993,-1.965914 0.724765,-3.865963 -0.117089,-4.504262 0.05883,-0.85421 0.121761,-1.6563 0.146356,-2.386363 C 59.152338,30.720707 54.161551,26 48,26 Z" />
      <path
         style="display:inline;opacity:0.6;fill:url(#linearGradient4697);fill-opacity:1;stroke:none;enable-background:new"
         id="path3994"
         inkscape:connector-curvature="0"
         d="m 26.500001,38 c -4.102461,0 -7.425405,3.147137 -7.425405,7.019887 0.0099,0.443823 0.01284,0.939434 0.05847,1.491477 -0.649247,0.350066 -0.735034,1.722168 -0.155914,3.102273 0.223311,0.532174 0.530263,0.962292 0.838038,1.3125 0.01026,0.0117 0.02865,0.02836 0.03897,0.03977 0.07346,0.364638 0.125533,0.642668 0.21438,1.053977 0.27524,0.835163 1.415116,2.408062 2.416668,3.758523 0.09988,1.041783 0.103507,2.076355 -0.09744,3.261362 -2.882807,2.419095 -10.262394,3.501314 -10.251342,6.005682 L 12,66 h 29 l -0.136424,-0.954545 c -0.01176,-2.143405 -7.423373,-3.501309 -10.270833,-6.005683 -0.115291,-0.959312 -0.136646,-1.898878 -0.07796,-2.843749 0.910596,-1.420715 2.111958,-3.25156 2.416667,-4.176137 0.111987,-0.478814 0.166383,-0.801919 0.253359,-1.213068 0.268899,-0.332425 0.522603,-0.720136 0.721103,-1.193181 0.549959,-1.310609 0.482559,-2.577308 -0.07796,-3.002841 0.03917,-0.569473 0.08107,-1.1042 0.09744,-1.590909 C 33.925409,41.147138 30.602461,38 26.500001,38 Z" />
      <path
         style="display:inline;opacity:0.2;fill:#000000;fill-opacity:1;stroke:none;enable-background:new"
         id="path4034"
         inkscape:connector-curvature="0"
         d="m 48,26 c -6.161551,0 -11.15625,4.722124 -11.15625,10.53125 0.01498,0.665734 0.02522,1.421936 0.09375,2.25 -0.975114,0.525098 -1.119788,2.554842 -0.25,4.625 0.335395,0.798261 0.818999,1.443438 1.28125,1.96875 0.01541,0.01756 0.04698,0.0454 0.0625,0.0625 0.110341,0.546958 0.17906,0.976787 0.3125,1.59375 0.413387,1.252746 2.120753,3.599309 3.625,5.625 0.15001,1.562675 0.145566,3.128738 -0.15625,4.90625 C 40.075089,59.018581 37.25881,60.141058 34.5,61.21875 32.989271,60.570308 31.537399,59.8612 30.59375,59.03125 30.478459,58.071938 30.441314,57.132371 30.5,56.1875 c 0.910596,-1.420715 2.132791,-3.231673 2.4375,-4.15625 0.111987,-0.478814 0.163024,-0.807601 0.25,-1.21875 0.268899,-0.332425 0.52025,-0.714455 0.71875,-1.1875 0.549959,-1.310609 0.466769,-2.574467 -0.09375,-3 0.03917,-0.569473 0.10863,-1.107041 0.125,-1.59375 C 33.937517,41.158501 30.60246,38 26.5,38 c -4.102461,0 -7.4375,3.1585 -7.4375,7.03125 0.0099,0.443823 0.01687,0.916707 0.0625,1.46875 -0.649247,0.350066 -0.73537,1.744895 -0.15625,3.125 0.223311,0.532174 0.535975,0.962292 0.84375,1.3125 0.01026,0.0117 0.02093,0.01984 0.03125,0.03125 0.07346,0.364638 0.129903,0.651191 0.21875,1.0625 0.27524,0.835163 1.435948,2.399539 2.4375,3.75 0.09988,1.041783 0.07595,2.064993 -0.125,3.25 -2.882807,2.419095 -10.261052,3.495632 -10.25,6 L 12,66 h 14.53125 c -0.05495,0.181713 -0.0946,0.370157 -0.09375,0.5625 L 26.21875,68 h 43.5625 L 69.5625,66.5625 C 69.5614,66.370773 69.51379,66.183961 69.4375,66 H 84 l -0.125,-0.96875 c -0.01176,-2.143405 -7.43379,-3.495626 -10.28125,-6 C 73.478459,58.071938 73.441314,57.132371 73.5,56.1875 c 0.910596,-1.420715 2.132791,-3.231673 2.4375,-4.15625 0.111987,-0.478814 0.163024,-0.807601 0.25,-1.21875 0.268899,-0.332425 0.52025,-0.714455 0.71875,-1.1875 0.549959,-1.310609 0.466769,-2.574467 -0.09375,-3 0.03917,-0.569473 0.10863,-1.107041 0.125,-1.59375 C 76.937517,41.158501 73.60246,38 69.5,38 c -4.102461,0 -7.4375,3.1585 -7.4375,7.03125 0.0099,0.443823 0.01687,0.916707 0.0625,1.46875 -0.649247,0.350066 -0.73537,1.744895 -0.15625,3.125 0.223311,0.532174 0.535975,0.962292 0.84375,1.3125 0.01026,0.0117 0.02093,0.01984 0.03125,0.03125 0.07346,0.364638 0.129903,0.651191 0.21875,1.0625 0.27524,0.835163 1.435948,2.399539 2.4375,3.75 0.09988,1.041783 0.07595,2.064993 -0.125,3.25 -1.047773,0.879234 -2.678672,1.591501 -4.34375,2.25 -2.627698,-1.092932 -5.244393,-2.286442 -6.875,-3.71875 -0.173156,-1.438968 -0.213143,-2.863943 -0.125,-4.28125 1.36764,-2.131074 3.167354,-4.863134 3.625,-6.25 0.168196,-0.718221 0.24437,-1.195777 0.375,-1.8125 0.403863,-0.498639 0.795621,-1.102934 1.09375,-1.8125 0.825993,-1.965914 0.716854,-3.861701 -0.125,-4.5 0.05883,-0.85421 0.131655,-1.644937 0.15625,-2.375 C 59.156265,30.722126 54.161551,26 48,26 Z m 0,1.09375 c 5.590715,0 10.04434,4.239085 10.0625,9.40625 3.7e-5,0.01058 0,0.02066 0,0.03125 -0.02399,0.677475 -0.09714,1.454253 -0.15625,2.3125 a 1.0949663,1.0949663 0 0 0 0.4375,0.9375 c 0.02325,0.01762 0.227889,0.302269 0.25,0.90625 0.02211,0.603981 -0.111107,1.430038 -0.46875,2.28125 -0.25144,0.598443 -0.58798,1.130957 -0.9375,1.5625 A 1.0949663,1.0949663 0 0 0 56.96875,45 c -0.129131,0.609647 -0.200531,1.061423 -0.34375,1.6875 -0.0082,0.03569 -0.0226,0.05682 -0.03125,0.09375 -0.180668,0.50885 -0.701692,1.468152 -1.34375,2.53125 -0.663913,1.099285 -1.438141,2.304728 -2.125,3.375 a 1.0949663,1.0949663 0 0 0 -0.1875,0.53125 c -0.09224,1.483156 -0.05601,2.96451 0.125,4.46875 a 1.0949663,1.0949663 0 0 0 0.375,0.6875 c 1.84037,1.616562 4.53681,2.803755 7.1875,3.90625 a 1.0949663,1.0949663 0 0 0 0.8125,0.03125 c 1.688796,-0.667879 3.402968,-1.385814 4.65625,-2.4375 a 1.0949663,1.0949663 0 0 0 0.375,-0.65625 c 0.215924,-1.273307 0.232965,-2.405135 0.125,-3.53125 A 1.0949663,1.0949663 0 0 0 66.375,55.125 c -0.500829,-0.675302 -1.038901,-1.396384 -1.46875,-2.03125 -0.429849,-0.634866 -0.754476,-1.230188 -0.8125,-1.40625 -0.0705,-0.331225 -0.122327,-0.613997 -0.1875,-0.9375 a 1.0949663,1.0949663 0 0 0 -0.25,-0.53125 c -0.01105,-0.01221 -0.02253,0.0088 -0.03125,0 C 63.367947,49.926257 63.132416,49.577534 62.96875,49.1875 62.737604,48.636655 62.668271,48.108581 62.6875,47.75 62.6971,47.570709 62.73618,47.475948 62.75,47.4375 a 1.0949663,1.0949663 0 0 0 0.46875,-1.03125 c -0.04122,-0.498699 -0.05281,-0.935514 -0.0625,-1.375 0,-0.0106 -6e-5,-0.02066 0,-0.03125 0.01823,-3.229969 2.814814,-5.90625 6.34375,-5.90625 3.528934,0 6.325533,2.676288 6.34375,5.90625 6e-5,0.01059 0,0.02065 0,0.03125 -0.01556,0.406495 -0.08382,0.932573 -0.125,1.53125 a 1.0949663,1.0949663 0 0 0 0.40625,0.90625 c -0.01063,0.0054 0.05201,0.122171 0.0625,0.375 0.01399,0.337105 -0.06248,0.822396 -0.28125,1.34375 -0.152282,0.362903 -0.341742,0.664589 -0.5625,0.9375 A 1.0949663,1.0949663 0 0 0 75.125,50.59375 c -0.08592,0.406178 -0.131293,0.705 -0.21875,1.09375 -0.0077,0.03422 -0.02288,0.05796 -0.03125,0.09375 -0.104911,0.279648 -0.454394,0.876694 -0.875,1.5625 -0.443446,0.723048 -0.944912,1.530219 -1.40625,2.25 a 1.0949663,1.0949663 0 0 0 -0.1875,0.53125 c -0.06324,1.01822 -0.02832,2.015512 0.09375,3.03125 a 1.0949663,1.0949663 0 0 0 0.375,0.6875 c 1.704579,1.499197 4.313613,2.435737 6.5,3.34375 1.093194,0.454006 2.09172,0.88632 2.71875,1.28125 0.269546,0.169772 0.41771,0.32132 0.53125,0.4375 H 69.4375 a 1.0949663,1.0949663 0 0 0 -1,1.5 c 0.03763,0.09074 0.03117,0.142051 0.03125,0.15625 a 1.0949663,1.0949663 0 0 0 0,0.15625 L 68.5,66.90625 h -41 l 0.03125,-0.1875 a 1.0949663,1.0949663 0 0 0 0,-0.15625 c -1.71e-4,-0.03872 0.02602,-0.129355 0.0625,-0.25 a 1.0949663,1.0949663 0 0 0 -1.0625,-1.40625 h -13.1875 c 0.03803,-0.118004 0.09279,-0.290502 0.59375,-0.625 0.603669,-0.403076 1.543867,-0.847249 2.625,-1.28125 2.162266,-0.868002 4.798782,-1.671207 6.53125,-3.125 a 1.0949663,1.0949663 0 0 0 0.375,-0.65625 c 0.215924,-1.273307 0.232965,-2.405135 0.125,-3.53125 A 1.0949663,1.0949663 0 0 0 23.375,55.125 c -0.500829,-0.675302 -1.038901,-1.396384 -1.46875,-2.03125 -0.429849,-0.634866 -0.754476,-1.230188 -0.8125,-1.40625 -0.0705,-0.331225 -0.122327,-0.613997 -0.1875,-0.9375 a 1.0949663,1.0949663 0 0 0 -0.25,-0.53125 c -0.01105,-0.01221 -0.02253,0.0088 -0.03125,0 C 20.367947,49.926257 20.132416,49.577534 19.96875,49.1875 19.737604,48.636655 19.668271,48.108581 19.6875,47.75 19.6971,47.570709 19.73618,47.475948 19.75,47.4375 a 1.0949663,1.0949663 0 0 0 0.46875,-1.03125 c -0.04122,-0.498699 -0.05281,-0.935514 -0.0625,-1.375 0,-0.0106 -6e-5,-0.02066 0,-0.03125 0.01823,-3.229969 2.814814,-5.90625 6.34375,-5.90625 3.528934,0 6.325533,2.676288 6.34375,5.90625 6e-5,0.01059 0,0.02065 0,0.03125 -0.01556,0.406495 -0.08382,0.932573 -0.125,1.53125 a 1.0949663,1.0949663 0 0 0 0.40625,0.90625 c -0.01063,0.0054 0.05201,0.122171 0.0625,0.375 0.01399,0.337105 -0.06248,0.822396 -0.28125,1.34375 -0.152282,0.362903 -0.341742,0.664589 -0.5625,0.9375 A 1.0949663,1.0949663 0 0 0 32.125,50.59375 c -0.08592,0.406178 -0.131293,0.705 -0.21875,1.09375 -0.0077,0.03422 -0.02288,0.05796 -0.03125,0.09375 -0.104911,0.279648 -0.454394,0.876694 -0.875,1.5625 -0.443446,0.723048 -0.944912,1.530219 -1.40625,2.25 a 1.0949663,1.0949663 0 0 0 -0.1875,0.53125 c -0.06324,1.01822 -0.02832,2.015512 0.09375,3.03125 a 1.0949663,1.0949663 0 0 0 0.375,0.6875 c 1.129606,0.993501 2.644556,1.71273 4.1875,2.375 A 1.0949663,1.0949663 0 0 0 34.90625,62.25 c 2.763586,-1.079558 5.653476,-2.191465 7.625,-3.84375 a 1.0949663,1.0949663 0 0 0 0.375,-0.65625 c 0.319286,-1.880398 0.313105,-3.553518 0.15625,-5.1875 A 1.0949663,1.0949663 0 0 0 42.84375,52 c -0.74969,-1.009568 -1.541136,-2.096226 -2.1875,-3.0625 -0.639585,-0.95614 -1.145125,-1.818877 -1.28125,-2.21875 -0.0014,-0.0042 0.0014,-0.02712 0,-0.03125 -0.109289,-0.520311 -0.17545,-0.944303 -0.28125,-1.46875 a 1.0949663,1.0949663 0 0 0 -0.25,-0.53125 C 38.81853,44.65971 38.79883,44.67301 38.78125,44.65625 38.77195,44.64563 38.75933,44.63571 38.75,44.625 c -0.0076,-0.0061 -0.02756,-0.02969 -0.03125,-0.03125 -0.398533,-0.462261 -0.771947,-1.007842 -1.03125,-1.625 -0.376999,-0.897284 -0.505553,-1.754444 -0.46875,-2.375 0.0368,-0.620556 0.261039,-0.849695 0.25,-0.84375 a 1.0949663,1.0949663 0 0 0 0.5625,-1.0625 c -0.06383,-0.771239 -0.07894,-1.491129 -0.09375,-2.15625 0,-0.01059 -3.7e-5,-0.02067 0,-0.03125 C 37.95567,31.332829 42.409285,27.09375 48,27.09375 Z" />
      <path
         style="display:inline;opacity:0.1;fill:#000000;fill-opacity:1;stroke:none;enable-background:new"
         id="path4038"
         inkscape:connector-curvature="0"
         d="m 48,26 c -6.161551,0 -11.15625,4.722124 -11.15625,10.53125 0.01498,0.665734 0.02522,1.421936 0.09375,2.25 -0.975114,0.525098 -1.119788,2.554842 -0.25,4.625 0.335395,0.798261 0.818999,1.443438 1.28125,1.96875 0.01541,0.01756 0.04698,0.0454 0.0625,0.0625 0.110341,0.546958 0.17906,0.976787 0.3125,1.59375 0.413387,1.252746 2.120753,3.599309 3.625,5.625 0.15001,1.562675 0.145566,3.128738 -0.15625,4.90625 C 40.075089,59.018581 37.25881,60.141058 34.5,61.21875 32.989271,60.570308 31.537399,59.8612 30.59375,59.03125 30.478459,58.071938 30.441314,57.132371 30.5,56.1875 c 0.910596,-1.420715 2.132791,-3.231673 2.4375,-4.15625 0.111987,-0.478814 0.163024,-0.807601 0.25,-1.21875 0.268899,-0.332425 0.52025,-0.714455 0.71875,-1.1875 0.549959,-1.310609 0.466769,-2.574467 -0.09375,-3 0.03917,-0.569473 0.10863,-1.107041 0.125,-1.59375 C 33.937517,41.158501 30.60246,38 26.5,38 c -4.102461,0 -7.4375,3.1585 -7.4375,7.03125 0.0099,0.443823 0.01687,0.916707 0.0625,1.46875 -0.649247,0.350066 -0.73537,1.744895 -0.15625,3.125 0.223311,0.532174 0.535975,0.962292 0.84375,1.3125 0.01026,0.0117 0.02093,0.01984 0.03125,0.03125 0.07346,0.364638 0.129903,0.651191 0.21875,1.0625 0.27524,0.835163 1.435948,2.399539 2.4375,3.75 0.09988,1.041783 0.07595,2.064993 -0.125,3.25 -2.882807,2.419095 -10.261052,3.495632 -10.25,6 L 12,66 h 14.53125 c -0.05495,0.181713 -0.0946,0.370157 -0.09375,0.5625 L 26.21875,68 h 43.5625 L 69.5625,66.5625 C 69.5614,66.370773 69.51379,66.183961 69.4375,66 H 84 l -0.125,-0.96875 c -0.01176,-2.143405 -7.43379,-3.495626 -10.28125,-6 C 73.478459,58.071938 73.441314,57.132371 73.5,56.1875 c 0.910596,-1.420715 2.132791,-3.231673 2.4375,-4.15625 0.111987,-0.478814 0.163024,-0.807601 0.25,-1.21875 0.268899,-0.332425 0.52025,-0.714455 0.71875,-1.1875 0.549959,-1.310609 0.466769,-2.574467 -0.09375,-3 0.03917,-0.569473 0.10863,-1.107041 0.125,-1.59375 C 76.937517,41.158501 73.60246,38 69.5,38 c -4.102461,0 -7.4375,3.1585 -7.4375,7.03125 0.0099,0.443823 0.01687,0.916707 0.0625,1.46875 -0.649247,0.350066 -0.73537,1.744895 -0.15625,3.125 0.223311,0.532174 0.535975,0.962292 0.84375,1.3125 0.01026,0.0117 0.02093,0.01984 0.03125,0.03125 0.07346,0.364638 0.129903,0.651191 0.21875,1.0625 0.27524,0.835163 1.435948,2.399539 2.4375,3.75 0.09988,1.041783 0.07595,2.064993 -0.125,3.25 -1.047773,0.879234 -2.678672,1.591501 -4.34375,2.25 -2.627698,-1.092932 -5.244393,-2.286442 -6.875,-3.71875 -0.173156,-1.438968 -0.213143,-2.863943 -0.125,-4.28125 1.36764,-2.131074 3.167354,-4.863134 3.625,-6.25 0.168196,-0.718221 0.24437,-1.195777 0.375,-1.8125 0.403863,-0.498639 0.795621,-1.102934 1.09375,-1.8125 0.825993,-1.965914 0.716854,-3.861701 -0.125,-4.5 0.05883,-0.85421 0.131655,-1.644937 0.15625,-2.375 C 59.156265,30.722126 54.161551,26 48,26 Z m 0,2.0625 c 5.080836,0 9.057794,3.811719 9.09375,8.40625 1.64e-4,0.02097 0,0.04149 0,0.0625 -0.02359,0.63242 -0.09705,1.359177 -0.15625,2.21875 a 2.0700319,2.0700319 0 0 0 0.625,1.65625 c 0.01265,0.03411 0.05532,0.116468 0.0625,0.3125 0.01574,0.429895 -0.0979,1.141107 -0.40625,1.875 -0.209863,0.499488 -0.480122,0.940706 -0.78125,1.3125 A 2.0700319,2.0700319 0 0 0 56,44.78125 c -0.126869,0.598969 -0.189246,1.042427 -0.3125,1.59375 -0.102553,0.31078 -0.629961,1.359118 -1.28125,2.4375 -0.651289,1.078382 -1.435435,2.269261 -2.125,3.34375 a 2.0700319,2.0700319 0 0 0 -0.3125,1 c -0.09589,1.541795 -0.063,3.093886 0.125,4.65625 a 2.0700319,2.0700319 0 0 0 0.6875,1.3125 c 2.027164,1.78064 4.797586,2.951489 7.46875,4.0625 a 2.0700319,2.0700319 0 0 0 1.53125,0.03125 c 1.709918,-0.676232 3.501213,-1.388496 4.9375,-2.59375 a 2.0700319,2.0700319 0 0 0 0.6875,-1.25 c 0.229258,-1.351937 0.271415,-2.580037 0.15625,-3.78125 A 2.0700319,2.0700319 0 0 0 67.15625,54.5625 c -0.500876,-0.675365 -1.025396,-1.391343 -1.4375,-2 -0.399279,-0.589715 -0.650307,-1.156131 -0.65625,-1.15625 -1.91e-4,-4e-6 -0.03165,-0.03246 -0.03125,-0.03125 -0.05799,-0.275717 -0.09788,-0.522767 -0.15625,-0.8125 a 2.0700319,2.0700319 0 0 0 -0.5,-0.96875 c -0.0096,-0.01064 0.0084,-0.02175 0,-0.03125 -0.211886,-0.241099 -0.389447,-0.486541 -0.5,-0.75 -0.162443,-0.387118 -0.184731,-0.737088 -0.1875,-0.9375 a 2.0700319,2.0700319 0 0 0 0.5,-1.53125 c -0.03816,-0.461613 -0.05272,-0.869793 -0.0625,-1.3125 -2.32e-4,-0.01052 2.35e-4,-0.02069 0,-0.03125 0.01815,-2.670721 2.346834,-4.9375 5.375,-4.9375 3.016246,0 5.338896,2.249308 5.375,4.90625 -4.75e-4,0.01412 6.54e-4,0.04773 0,0.0625 -0.01515,0.342201 -0.0823,0.816668 -0.125,1.4375 a 2.0700319,2.0700319 0 0 0 0.46875,1.46875 c -4.24e-4,0.177453 -0.0607,0.498349 -0.21875,0.875 -0.111125,0.264822 -0.228361,0.467586 -0.40625,0.6875 a 2.0700319,2.0700319 0 0 0 -0.4375,0.875 c -0.08366,0.395467 -0.117949,0.678681 -0.1875,1 -0.0206,0.0625 -0.350285,0.766052 -0.78125,1.46875 -0.430965,0.702698 -0.970783,1.490577 -1.4375,2.21875 a 2.0700319,2.0700319 0 0 0 -0.3125,1 c -0.0673,1.083538 -0.03436,2.152765 0.09375,3.21875 a 2.0700319,2.0700319 0 0 0 0.6875,1.3125 c 1.849272,1.626456 4.312712,2.493931 6.40625,3.34375 h -9.1875 a 2.0700319,2.0700319 0 0 0 -2.0625,2 H 28.59375 a 2.0700319,2.0700319 0 0 0 -2.0625,-2 H 16.875 c 0.02691,-0.01088 0.0354,-0.02037 0.0625,-0.03125 2.12552,-0.853251 4.78959,-1.609957 6.78125,-3.28125 a 2.0700319,2.0700319 0 0 0 0.6875,-1.25 c 0.229258,-1.351937 0.271415,-2.580037 0.15625,-3.78125 A 2.0700319,2.0700319 0 0 0 24.15625,54.5625 c -0.500876,-0.675365 -1.025396,-1.391343 -1.4375,-2 -0.399279,-0.589715 -0.650307,-1.156131 -0.65625,-1.15625 -1.91e-4,-4e-6 -0.03165,-0.03246 -0.03125,-0.03125 -0.05799,-0.275717 -0.09788,-0.522767 -0.15625,-0.8125 a 2.0700319,2.0700319 0 0 0 -0.5,-0.96875 c -0.0096,-0.01064 0.0084,-0.02175 0,-0.03125 -0.211886,-0.241099 -0.389447,-0.486541 -0.5,-0.75 -0.162443,-0.387118 -0.184731,-0.737088 -0.1875,-0.9375 a 2.0700319,2.0700319 0 0 0 0.5,-1.53125 c -0.03815,-0.461613 -0.05272,-0.869793 -0.0625,-1.3125 -2.32e-4,-0.01052 2.35e-4,-0.02069 0,-0.03125 0.01815,-2.670721 2.346834,-4.9375 5.375,-4.9375 3.016246,0 5.338896,2.249308 5.375,4.90625 -4.75e-4,0.01412 6.54e-4,0.04773 0,0.0625 -0.01515,0.342201 -0.0823,0.816668 -0.125,1.4375 a 2.0700319,2.0700319 0 0 0 0.46875,1.46875 c -4.24e-4,0.177453 -0.0607,0.498349 -0.21875,0.875 -0.111125,0.264822 -0.228361,0.467586 -0.40625,0.6875 a 2.0700319,2.0700319 0 0 0 -0.4375,0.875 c -0.08366,0.395467 -0.117949,0.678681 -0.1875,1 -0.0206,0.0625 -0.350285,0.766052 -0.78125,1.46875 -0.430965,0.702698 -0.970783,1.490577 -1.4375,2.21875 a 2.0700319,2.0700319 0 0 0 -0.3125,1 c -0.0673,1.083538 -0.03436,2.152765 0.09375,3.21875 a 2.0700319,2.0700319 0 0 0 0.6875,1.3125 c 1.2952,1.139143 2.897118,1.856667 4.46875,2.53125 a 2.0700319,2.0700319 0 0 0 1.5625,0.03125 c 2.767838,-1.081219 5.72625,-2.172996 7.90625,-4 a 2.0700319,2.0700319 0 0 0 0.6875,-1.25 c 0.334843,-1.972018 0.350451,-3.740019 0.1875,-5.4375 A 2.0700319,2.0700319 0 0 0 43.625,51.4375 c -0.747522,-1.006649 -1.527858,-2.091843 -2.15625,-3.03125 -0.609632,-0.911363 -1.042,-1.747542 -1.125,-1.96875 -0.0026,-0.0068 -0.02942,-0.05694 -0.03125,-0.0625 -0.09299,-0.453298 -0.147963,-0.837956 -0.25,-1.34375 a 2.0700319,2.0700319 0 0 0 -0.5,-1 C 39.359567,43.807658 39.337629,43.779366 39.53125,44 39.151271,43.568183 38.808191,43.104133 38.59375,42.59375 38.268307,41.819172 38.161855,41.057405 38.1875,40.625 c 0.01124,-0.189593 0.03122,-0.212897 0.03125,-0.21875 5e-6,-8.21e-4 0.0016,-0.03311 0,-0.03125 A 2.0700319,2.0700319 0 0 0 39,38.625 c -0.06048,-0.730842 -0.0788,-1.423246 -0.09375,-2.09375 0,-0.0105 -4.1e-5,-0.02076 0,-0.03125 C 38.92429,31.891373 42.907568,28.0625 48,28.0625 Z" />
      <path
         style="display:inline;opacity:0.3;fill:#000000;fill-opacity:1;stroke:none;enable-background:new"
         id="path4022"
         inkscape:connector-curvature="0"
         d="m 48,26 c -6.161551,0 -11.15625,4.722124 -11.15625,10.53125 0.0046,0.205704 0.02567,0.43382 0.03125,0.65625 C 37.071732,31.540671 41.963274,27 48,27 c 5.969003,0 10.826221,4.441664 11.125,10 0.0081,-0.148848 0.0264,-0.32465 0.03125,-0.46875 C 59.156265,30.722126 54.161551,26 48,26 Z M 26.5,38 c -4.102461,0 -7.4375,3.1585 -7.4375,7.03125 0.0034,0.151217 0.02691,0.340055 0.03125,0.5 C 19.366713,41.890901 22.576054,39 26.5,39 c 3.846056,0 7.02484,2.77445 7.40625,6.3125 0.0058,-0.08919 0.02835,-0.195141 0.03125,-0.28125 C 33.937517,41.158501 30.60246,38 26.5,38 Z m 43,0 c -4.102461,0 -7.4375,3.1585 -7.4375,7.03125 0.0034,0.151217 0.02691,0.340055 0.03125,0.5 C 62.366713,41.890901 65.576054,39 69.5,39 c 3.846056,0 7.02484,2.77445 7.40625,6.3125 0.0058,-0.08919 0.02835,-0.195141 0.03125,-0.28125 C 76.937517,41.158501 73.60246,38 69.5,38 Z m -32.625,0.8125 c -0.592948,0.371485 -0.836635,1.322942 -0.71875,2.5 0.08048,-0.731252 0.33457,-1.290713 0.78125,-1.53125 -0.02797,-0.337974 -0.04966,-0.655984 -0.0625,-0.96875 z m 22.1875,0.15625 c -0.02376,0.317595 -0.03928,0.600292 -0.0625,0.9375 0.350986,0.26612 0.574658,0.757768 0.65625,1.375 0.09144,-1.042957 -0.11538,-1.890119 -0.59375,-2.3125 z m -39.96875,7.5625 c -0.406681,0.252443 -0.564272,0.925566 -0.46875,1.75 0.0797,-0.369243 0.256532,-0.649975 0.5,-0.78125 -0.03008,-0.363954 -0.02286,-0.659254 -0.03125,-0.96875 z m 43,0 c -0.406681,0.252443 -0.564272,0.925566 -0.46875,1.75 0.0797,-0.369243 0.256532,-0.649975 0.5,-0.78125 -0.03008,-0.363954 -0.02286,-0.659254 -0.03125,-0.96875 z M 33.875,46.6875 c -0.02702,0.30879 -0.03948,0.602823 -0.0625,0.9375 0.221556,0.168201 0.343471,0.462477 0.40625,0.84375 0.118291,-0.792617 -0.0027,-1.457527 -0.34375,-1.78125 z m 43,0 c -0.02702,0.30879 -0.03948,0.602823 -0.0625,0.9375 0.221556,0.168201 0.343471,0.462477 0.40625,0.84375 0.118291,-0.792617 -0.0027,-1.457527 -0.34375,-1.78125 z m -34.8125,8.34375 c -0.02009,0.809039 -0.09909,1.642494 -0.25,2.53125 -1.737411,1.456081 -4.55369,2.578558 -7.3125,3.65625 -1.510729,-0.648442 -2.962601,-1.35755 -3.90625,-2.1875 -0.04883,-0.406313 -0.0743,-0.817618 -0.09375,-1.21875 -0.01321,0.734132 0.0041,1.472513 0.09375,2.21875 0.943649,0.82995 2.395521,1.539058 3.90625,2.1875 2.75881,-1.077692 5.575089,-2.200169 7.3125,-3.65625 0.214448,-1.262969 0.284541,-2.407147 0.25,-3.53125 z M 54,55.5625 c -0.0073,0.993601 0.0353,1.9949 0.15625,3 1.630607,1.432308 4.247302,2.625818 6.875,3.71875 1.665078,-0.658499 3.295977,-1.370766 4.34375,-2.25 0.150712,-0.888755 0.213487,-1.685923 0.1875,-2.46875 -0.02495,0.467169 -0.100472,0.955537 -0.1875,1.46875 -1.047773,0.879234 -2.678672,1.591501 -4.34375,2.25 -2.627698,-1.092932 -5.244393,-2.286442 -6.875,-3.71875 -0.08034,-0.66762 -0.132741,-1.337773 -0.15625,-2 z m -31.4375,2 c -0.02495,0.467169 -0.100472,0.955537 -0.1875,1.46875 -2.882807,2.419095 -10.261052,3.495632 -10.25,6 L 12,66 h 0.125 c 0.04777,-2.482984 7.378743,-3.559347 10.25,-5.96875 0.150712,-0.888755 0.213487,-1.685923 0.1875,-2.46875 z m 50.9375,0.25 c -0.01322,0.734132 0.0041,1.472513 0.09375,2.21875 C 76.428212,62.524193 83.796201,63.873528 83.875,66 H 84 l -0.125,-0.96875 c -0.01176,-2.143405 -7.43379,-3.495626 -10.28125,-6 C 73.544919,58.624937 73.51945,58.213632 73.5,57.8125 Z M 26.375,67 26.21875,68 H 26.375 l 0.0625,-0.4375 C 26.43665,67.370157 26.4763,67.181713 26.53125,67 Z m 43.0625,0 c 0.07629,0.183961 0.123947,0.370773 0.125,0.5625 L 69.625,68 h 0.15625 L 69.625,67 Z" />
      <path
         style="display:inline;opacity:0.3;fill:#ffffff;fill-opacity:1;stroke:none;enable-background:new"
         id="path4006"
         inkscape:connector-curvature="0"
         d="m 59.125,37 c -0.03308,0.605272 -0.07778,1.220644 -0.125,1.90625 0.02338,0.01773 0.04025,0.04285 0.0625,0.0625 0.03643,-0.486933 0.07886,-0.995636 0.09375,-1.4375 0,-0.181535 -0.02161,-0.351949 -0.03125,-0.53125 z m -22.25,0.1875 c -0.0041,0.116762 -0.03125,0.226065 -0.03125,0.34375 0.0089,0.394015 0.01264,0.827713 0.03125,1.28125 0.02005,-0.01256 0.04169,-0.02004 0.0625,-0.03125 -0.04736,-0.572202 -0.05001,-1.096315 -0.0625,-1.59375 z m -0.71875,4.125 c -0.09521,0.865091 0.05989,1.971888 0.53125,3.09375 0.335395,0.798261 0.818999,1.443438 1.28125,1.96875 0.01541,0.01756 0.04698,0.0454 0.0625,0.0625 0.110341,0.546958 0.17906,0.976787 0.3125,1.59375 0.413387,1.252746 2.120753,3.599309 3.625,5.625 0.0375,0.390669 0.07779,0.793157 0.09375,1.1875 0.01039,-0.741411 -0.02467,-1.467847 -0.09375,-2.1875 -1.504247,-2.025691 -3.211613,-4.372254 -3.625,-5.625 C 38.21031,46.414287 38.141591,45.984458 38.03125,45.4375 38.01573,45.4204 37.98416,45.39256 37.96875,45.375 37.506499,44.849688 37.022895,44.204511 36.6875,43.40625 36.385176,42.686697 36.221179,41.9608 36.15625,41.3125 Z m 23.5,0 c -0.06011,0.647249 -0.22611,1.367498 -0.53125,2.09375 -0.298129,0.709566 -0.689887,1.313861 -1.09375,1.8125 -0.13063,0.616723 -0.206804,1.094279 -0.375,1.8125 -0.457646,1.386866 -2.25736,4.118926 -3.625,6.25 -0.02074,0.333412 0.0065,0.665657 0,1 1.36764,-2.131074 3.167354,-4.863134 3.625,-6.25 0.168196,-0.718221 0.24437,-1.195777 0.375,-1.8125 0.403863,-0.498639 0.795621,-1.102934 1.09375,-1.8125 0.475953,-1.132798 0.637552,-2.234688 0.53125,-3.09375 z m -25.75,4.0625 c -0.02776,0.398157 -0.06304,0.803474 -0.09375,1.25 0.02336,0.01773 0.04081,0.04192 0.0625,0.0625 0.01895,-0.216635 0.05575,-0.455578 0.0625,-0.65625 10e-7,-0.221039 -0.01,-0.440319 -0.03125,-0.65625 z m 43,0 c -0.02776,0.398157 -0.06304,0.803474 -0.09375,1.25 0.02335,0.01773 0.04081,0.04192 0.0625,0.0625 0.01896,-0.216635 0.05575,-0.455578 0.0625,-0.65625 10e-7,-0.221039 -0.01,-0.440319 -0.03125,-0.65625 z m -57.8125,0.15625 c -0.01242,0.165613 -0.03125,0.331481 -0.03125,0.5 0.0034,0.151217 0.02691,0.340055 0.03125,0.5 0.012,-0.0074 0.01884,-0.02456 0.03125,-0.03125 -0.03008,-0.363954 -0.02286,-0.659254 -0.03125,-0.96875 z m 43,0 c -0.01242,0.165613 -0.03125,0.331481 -0.03125,0.5 0.0034,0.151217 0.02691,0.340055 0.03125,0.5 0.012,-0.0074 0.01884,-0.02456 0.03125,-0.03125 -0.03008,-0.363954 -0.02286,-0.659254 -0.03125,-0.96875 z M 18.625,48.34375 c -0.114821,0.611345 -0.0071,1.445069 0.34375,2.28125 0.223311,0.532174 0.535975,0.962292 0.84375,1.3125 0.01026,0.0117 0.02093,0.01984 0.03125,0.03125 0.07346,0.364638 0.129903,0.651191 0.21875,1.0625 0.27524,0.835163 1.435948,2.399539 2.4375,3.75 0.02199,0.229391 0.05308,0.457984 0.0625,0.6875 0.02627,-0.578088 -0.0087,-1.126776 -0.0625,-1.6875 -1.001552,-1.350461 -2.16226,-2.914837 -2.4375,-3.75 -0.08885,-0.411309 -0.14529,-0.697862 -0.21875,-1.0625 C 19.83343,50.95734 19.82276,50.9492 19.8125,50.9375 19.504725,50.587292 19.192061,50.157174 18.96875,49.625 18.785404,49.188067 18.67823,48.750014 18.625,48.34375 Z m 43,0 c -0.114821,0.611345 -0.0071,1.445069 0.34375,2.28125 0.223311,0.532174 0.535975,0.962292 0.84375,1.3125 0.01026,0.0117 0.02093,0.01984 0.03125,0.03125 0.07346,0.364638 0.129903,0.651191 0.21875,1.0625 0.27524,0.835163 1.435948,2.399539 2.4375,3.75 0.02199,0.229391 0.05308,0.457984 0.0625,0.6875 0.02627,-0.578088 -0.0087,-1.126776 -0.0625,-1.6875 -1.001552,-1.350461 -2.16226,-2.914837 -2.4375,-3.75 -0.08885,-0.411309 -0.14529,-0.697862 -0.21875,-1.0625 C 62.83343,50.95734 62.82276,50.9492 62.8125,50.9375 62.504725,50.587292 62.192061,50.157174 61.96875,49.625 61.785404,49.188067 61.67823,48.750014 61.625,48.34375 Z m -27.40625,0.125 c -0.05471,0.366561 -0.145836,0.759072 -0.3125,1.15625 -0.1985,0.473045 -0.449851,0.855075 -0.71875,1.1875 -0.08698,0.411149 -0.138013,0.739936 -0.25,1.21875 -0.304709,0.924577 -1.526904,2.735535 -2.4375,4.15625 -0.03383,0.544675 -0.02647,1.079052 0,1.625 0.0038,-0.209619 -0.01303,-0.415132 0,-0.625 0.910596,-1.420715 2.132791,-3.231673 2.4375,-4.15625 0.111987,-0.478814 0.163024,-0.807601 0.25,-1.21875 0.268899,-0.332425 0.52025,-0.714455 0.71875,-1.1875 0.332577,-0.792564 0.408547,-1.572935 0.3125,-2.15625 z m 43,0 c -0.05471,0.366561 -0.145836,0.759072 -0.3125,1.15625 -0.1985,0.473045 -0.449851,0.855075 -0.71875,1.1875 -0.08698,0.411149 -0.138013,0.739936 -0.25,1.21875 -0.304709,0.924577 -1.526904,2.735535 -2.4375,4.15625 -0.03383,0.544675 -0.02647,1.079052 0,1.625 0.0038,-0.209619 -0.01304,-0.415132 0,-0.625 0.910596,-1.420715 2.132791,-3.231673 2.4375,-4.15625 0.111987,-0.478814 0.163024,-0.807601 0.25,-1.21875 0.268899,-0.332425 0.52025,-0.714455 0.71875,-1.1875 0.332577,-0.792564 0.408547,-1.572935 0.3125,-2.15625 z M 12.125,66 c -1.92e-4,0.01 -4.4e-5,0.02122 0,0.03125 L 12,67 h 14.375 l 0.0625,-0.4375 C 26.43665,66.370157 26.4763,66.181713 26.53125,66 Z m 57.3125,0 c 0.07629,0.183961 0.123947,0.370773 0.125,0.5625 L 69.625,67 H 84 l -0.125,-0.96875 c -5.4e-5,-0.0098 3.61e-4,-0.0215 0,-0.03125 z m -43.0625,2 -0.15625,1 h 43.5625 L 69.625,68 Z" />
    </g>
  </g>
</svg>
