{
    "extension_description": {
        "message": "Sustituir al agente de usuario del navegador"
    },
    "options_entries_caption": {
        "message": "Agentes de usuario"
    },
    "popup_item_options": {
        "message": "Preferencias…"
    },
    "icon_title_enabled": {
        "message": "ahora operativo"
    },
    "icon_title_disabled": {
        "message": "ahora no operativo"
    },
    "option_badge_text": {
        "message": "¿Mostrar el Agente de Usuario como Texto en el Icono?",
        "description": "Text of checkbox option to show/hide the two to four letter abbreviations displayed ontop of the browser action icon"
    },
    "option_random_jitter": {
        "message": "Varianza del Modo Aleatorio",
        "description": "Text of numeric option (0-100) for setting by how many per-cent the random-interval value should (on avarage) be varied"
    },
    "options_entries_reset": {
        "message": "Reiniciar a la configuración por defecto",
        "description": "Options page link for loading the entries defaults"
    },
    "options_entries_reset_undo_text": {
        "message": "Valores por Defecto Restaurados",
        "description": "Text of popup that is shown after the reset link has been clicked"
    },
    "options_entries_reset_undo_button": {
        "message": "Deshacer Reinicio",
        "description": "Label of button for undoing a reset (displayed below the text that asserts that the options have just been reset)"
    },
    "options_entries_switch_text": {
        "message": "Cambiar a Modo Texto",
        "description": "Options page link for switching from table to text mode"
    },
    "options_entries_switch_table": {
        "message": "Cambiar a Modo Tabla",
        "description": "Options page link for switching from text to table mode"
    },
    "options_entries_heading_label": {
        "message": "Nombre",
        "description": "Options page table editor heading for the column with user-facing User-Agent-String labels"
    },
    "options_entries_heading_category": {
        "message": "Categoría",
        "description": "Options page table editor heading for the column with general category of the given User-Agent-String"
    },
    "options_entries_heading_string": {
        "message": "Cadena de Agente",
        "description": "Options page table editor heading for the column with the actual server-reported User-Agent-Strings"
    },
    "useragent_category_desktop": {
        "message": "Escritorio",
        "description": "Default category label for browsers on desktop devices"
    },
    "useragent_category_mobile": {
        "message": "Móvil",
        "description": "Default category label for browsers on mobile devices"
    },
    "useragent_category_bot": {
        "message": "Robot",
        "description": "Default category label for search engine bots"
    },
    "useragent_category_other": {
        "message": "Otros",
        "description": "Default category label for unclassified client software"
    },
    "icon_title_random": {
        "message": "Modo Aleatorio",
        "description": "Text displayed in the browser action icon tooltip when the User-Agent header is choosen at random"
    },
    "popup_item_random": {
        "message": "Activar el Modo Aleatorio",
        "description": "The label of the menu item for enabling time-based User-Agent randomization"
    },
    "popup_item_random_categories": {
        "message": "Categorías:",
        "description": "The section header of the categories selection of random selection mode"
    },
    "popup_item_random_interval_mode_restart": {
        "message": "Solo al inicio",
        "description": "The label of the menu item for enabling the time-based User-Agent randomization only on extension and browser startup"
    },
    "popup_item_random_interval_mode_timed": {
        "message": "Cada:",
        "description": "The label of the menu item for enabling the time-based User-Agent randomization at regular intervals"
    },
    "popup_item_random_interval_unit_minutes": {
        "message": "Minuto(s)",
        "description": "A User-Agent randomization time interval"
    },
    "popup_item_random_interval_unit_hours": {
        "message": "Hora(s)",
        "description": "A User-Agent randomization time interval"
    },
    "popup_item_random_interval_unit_days": {
        "message": "Día(s)",
        "description": "A User-Agent randomization time interval"
    },
    "popup_item_default": {
        "message": "Predeterminado",
        "description": "The label of the menu item that disables the User-Agent-Overrider and lets the browser send its default User-Agent-String"
    },
    "option_popup_override_size_description": {
        "message": "Activar si el menú emergente aparece muy pequeño en pantalla",
        "description": "Description text of checkbox option to force the extension popup to a static/larger size than it would normally be according to the browser defaults"
    },
    "option_popup_override_size": {
        "message": "Forzar tamaño por defecto del menú emergente",
        "description": "Text of checkbox option to force the extension popup to a static/larger size than it would normally be according to the browser defaults (note that this also has a description attached)"
    },
    "popup_item_override_tpl": {
        "message": "“$NOMBRE_DEL_HOST$”",
        "description": "Label of an individual selectable override domain",
        "placeholders": {
            "hostname": {
                "content": "$1",
                "example": "https://www.example.net"
            }
        }
    },
    "popup_item_override": {
        "message": "Anular para Dominio",
        "description": "Label of the checkbox that can be used to switch from setting the global User-Agent string to a per-site value"
    },
    "icon_title_override_disabled": {
        "message": "Desactivado por Anulación",
        "description": "Text displayed in the browser action icon tooltip when no request processing is being done because of an override being set"
    },
    "icon_title_override_enabled": {
        "message": "Activado por Anulación",
        "description": "Text displayed in the browser action icon tooltip when request processing is being done because of an override being set"
    },
    "options_entries_heading_enabled": {
        "message": "Habilitado",
        "description": "Options page table editor heading for the column allowing to enabled or disable items"
    }
}
