{
    "extension_description": {
        "message": "Gebruikersagent-string van browser overschrijven"
    },
    "options_entries_caption": {
        "message": "Gebruikersagent-items"
    },
    "options_entries_reset": {
        "message": "Herstellen naar standaardwaarden"
    },
    "popup_item_options": {
        "message": "Voorkeuren…"
    },
    "popup_item_default": {
        "message": "Standaard"
    },
    "icon_title_enabled": {
        "message": "Ingeschakeld"
    },
    "icon_title_disabled": {
        "message": "Uitgeschakeld"
    },
    "options_entries_reset_undo_text": {
        "message": "Standaardwaarden teruggezet",
        "description": "Text of popup that is shown after the reset link has been clicked"
    },
    "options_entries_reset_undo_button": {
        "message": "Terugzetten standaardwaarden ongedaan maken",
        "description": "Label of button for undoing a reset (displayed below the text that asserts that the options have just been reset)"
    },
    "options_entries_switch_text": {
        "message": "Laat zien als platte tekst",
        "description": "Options page link for switching from table to text mode"
    },
    "options_entries_switch_table": {
        "message": "Laat zien als tabel",
        "description": "Options page link for switching from text to table mode"
    },
    "options_entries_heading_label": {
        "message": "Label",
        "description": "Options page table editor heading for the column with user-facing User-Agent-String labels"
    },
    "options_entries_heading_category": {
        "message": "Categorie",
        "description": "Options page table editor heading for the column with general category of the given User-Agent-String"
    },
    "options_entries_heading_string": {
        "message": "Gebruikersagent-string",
        "description": "Options page table editor heading for the column with the actual server-reported User-Agent-Strings"
    },
    "useragent_category_desktop": {
        "message": "Desktop",
        "description": "Default category label for browsers on desktop devices"
    },
    "useragent_category_mobile": {
        "message": "Mobiel",
        "description": "Default category label for browsers on mobile devices"
    },
    "useragent_category_bot": {
        "message": "Bot",
        "description": "Default category label for search engine bots"
    },
    "useragent_category_other": {
        "message": "Andere agent",
        "description": "Default category label for unclassified client software"
    },
    "icon_title_random": {
        "message": "Willekeurige modus",
        "description": "Text displayed in the browser action icon tooltip when the User-Agent header is choosen at random"
    },
    "popup_item_random": {
        "message": "Willekeurige modus inschakelen",
        "description": "The label of the menu item for enabling time-based User-Agent randomization"
    },
    "popup_item_random_categories": {
        "message": "Categorieen:",
        "description": "The section header of the categories selection of random selection mode"
    },
    "popup_item_random_interval_mode_restart": {
        "message": "Alleen bij opstarten",
        "description": "The label of the menu item for enabling the time-based User-Agent randomization only on extension and browser startup"
    },
    "popup_item_random_interval_mode_timed": {
        "message": "Iedere:",
        "description": "The label of the menu item for enabling the time-based User-Agent randomization at regular intervals"
    },
    "popup_item_random_interval_unit_minutes": {
        "message": "Minu(u)t(en)",
        "description": "A User-Agent randomization time interval"
    },
    "popup_item_random_interval_unit_hours": {
        "message": "U(u)r(en)",
        "description": "A User-Agent randomization time interval"
    },
    "popup_item_random_interval_unit_days": {
        "message": "Dag(en)",
        "description": "A User-Agent randomization time interval"
    },
    "option_badge_text": {
        "message": "Gebruikersagent weergeven als tekst op pictogram?",
        "description": "Text of checkbox option to show/hide the two to four letter abbreviations displayed ontop of the browser action icon"
    },
    "option_random_jitter": {
        "message": "Willekeurigemodusvariantie",
        "description": "Text of numeric option (0-100) for setting by how many per-cent the random-interval value should (on avarage) be varied"
    },
    "options_entries_heading_enabled": {
        "message": "Ingeschakeld",
        "description": "Options page table editor heading for the column allowing to enabled or disable items"
    },
    "icon_title_override_enabled": {
        "message": "Ingeschakeld door override",
        "description": "Text displayed in the browser action icon tooltip when request processing is being done because of an override being set"
    },
    "icon_title_override_disabled": {
        "message": "Uitgeschakeld door override",
        "description": "Text displayed in the browser action icon tooltip when no request processing is being done because of an override being set"
    },
    "popup_item_override": {
        "message": "Override voor domein",
        "description": "Label of the checkbox that can be used to switch from setting the global User-Agent string to a per-site value"
    },
    "popup_item_override_tpl": {
        "message": "“$HOSTNAME$”",
        "description": "Label of an individual selectable override domain"
    }
}
